
이름 수명 적정수온(최저 최고) 길이 체중 같이살면안되는어종 특징

구피 5년 22도 28도 3cm 3g X 민물고기이며,모기퇴치가 가능하며 번식이 쉽다
제브라다니오 2년 22도 28도 6cm 5g 난생이며,논에서 많이 볼수 있다.
베타 1년 25도 26도 10cm 10g O 베타끼리 싸움
코리도라스나테리 3년 20도 28도 6cm 7g 독을 내뿜어 주위에 다른어종이 다가오지 못하게하는 특성이 있다.
블랙테트라 2년 23도 28도 6cm 6g 동남아에 대량 번식되며 비교 기르기 용이
레드플래티 2년 18도 25도 6cm 6g 난태생어로 자기가 낳은 새끼들도 먹이로 생각한다 
네온테트라 1년 21도 25도 3cm 3g 전세계적으로 가장 많이 팔리는 물고기
하세마니아 2년 23도 28도 4cm 3g 성격이 온화하여 혼육 가능
수마트라 2년 22도 28도 6cm 8g O 다른 물고기들의 지느러미를 갉아먹기도한다.
블랙니그로 5년 24도 27도 13cm 12g O 다른 물고기들을 공격함, 한쌍만 키우기를 추천한다.



