43
50 10 100 20 40 40 10 30 50 70 0 50 10 100 20 40 40 10 30 50 70 0 30 50 70 10 60 20 10 50 10 100 0 30 50 70 10 60 20 10 50 10 100
30 50 70 10 60 20 10 50 10 100 0 30 50 70 10 60 20 10 50 10 100 50 50 10 100 20 40 40 10 30 50 70 0 50 10 100 20 40 40 10 30 50 70
