c DD746 창의기초설계	1	김현아 월 123
c DD104 컴퓨터프로그래밍	1	권준희 화 678
c DD015 객체지향프로그래밍	1	정경용 수 123
c DD747 수치계산	2	김희열 화 123
c DD748 시스템소프트웨어	2	김광훈 금 123
c DD734 이산수학1	2	권기현 목 678
c CS343 자료구조론	2	김인철 월 678
c DD721 알고리즘	4	배상원 화 123
e DD749 윈도우프로그래밍	2	이은정 http://cs.kyonggi.ac.kr/wp 1234
c DD736 수리논리	2	김차영 목 678
c DD750 자바프로그래밍	2	이병대 화 123
c EF624 컴퓨터구조	2	안진호 목 123
c DD751 내장형시스템	4	이병대 수 678
c DD727 데이터베이스	3	권준희 수 123
c DD316 소프트웨어공학	3	권기현 목 123
c DD724 운영체제	3	이병대 금 678
c AS705 컴퓨터네트워크	2	김남기 수 678
c DD726 네트워크프로그래밍	3	김남기 목 678
c DD753 웹서비스설계	3	김희열 금 123
c DD771 프로그래밍언어론	3	이은정	화 123
c DD313 인공지능	3	김인철 월 123
e DD318 컴파일러	4	이은정 http://cs.kyonggi.ac.kr/compiler 1234
c DD709 컴퓨터그래픽스	3	전준철 목 123