^C:\USERS\HANSO\DOCUMENTS\VISUAL STUDIO 2017\PROJECTS\LANG_07\LANG_07\GREAT.CPP
/c /ZI /nologo /W3 /WX- /diagnostics:classic /Od /D _DEBUG /D _CONSOLE /D _UNICODE /D UNICODE /Gm /EHsc /RTC1 /MDd /GS /fp:precise /Zc:wchar_t /Zc:forScope /Zc:inline /Fo"X64\DEBUG\\" /Fd"X64\DEBUG\VC141.PDB" /Gd /TP C:\USERS\HANSO\DOCUMENTS\VISUAL STUDIO 2017\PROJECTS\LANG_07\LANG_07\GREAT.CPP
^C:\USERS\HANSO\DOCUMENTS\VISUAL STUDIO 2017\PROJECTS\LANG_07\LANG_07\MAIN.CPP
/c /ZI /nologo /W3 /WX- /diagnostics:classic /Od /D _DEBUG /D _CONSOLE /D _UNICODE /D UNICODE /Gm /EHsc /RTC1 /MDd /GS /fp:precise /Zc:wchar_t /Zc:forScope /Zc:inline /Fo"X64\DEBUG\\" /Fd"X64\DEBUG\VC141.PDB" /Gd /TP C:\USERS\HANSO\DOCUMENTS\VISUAL STUDIO 2017\PROJECTS\LANG_07\LANG_07\MAIN.CPP
^D:\백업 자료\대학교\수업 PPT 및 자료\프로그래밍언어론\LANG_07\LANG_07\GREAT.CPP
/c /ZI /nologo /W3 /WX- /diagnostics:classic /Od /D _DEBUG /D _CONSOLE /D _UNICODE /D UNICODE /Gm /EHsc /RTC1 /MDd /GS /fp:precise /Zc:wchar_t /Zc:forScope /Zc:inline /Fo"X64\DEBUG\\" /Fd"X64\DEBUG\VC141.PDB" /Gd /TP D:\백업 자료\대학교\수업 PPT 및 자료\프로그래밍언어론\LANG_07\LANG_07\GREAT.CPP
^D:\백업 자료\대학교\수업 PPT 및 자료\프로그래밍언어론\LANG_07\LANG_07\MAIN.CPP
/c /ZI /nologo /W3 /WX- /diagnostics:classic /Od /D _DEBUG /D _CONSOLE /D _UNICODE /D UNICODE /Gm /EHsc /RTC1 /MDd /GS /fp:precise /Zc:wchar_t /Zc:forScope /Zc:inline /Fo"X64\DEBUG\\" /Fd"X64\DEBUG\VC141.PDB" /Gd /TP D:\백업 자료\대학교\수업 PPT 및 자료\프로그래밍언어론\LANG_07\LANG_07\MAIN.CPP
