^C:\USERS\HANSO\DOCUMENTS\VISUAL STUDIO 2017\PROJECTS\LANG_07\LANG_07\X64\DEBUG\GREAT.OBJ|C:\USERS\HANSO\DOCUMENTS\VISUAL STUDIO 2017\PROJECTS\LANG_07\LANG_07\X64\DEBUG\MAIN.OBJ
C:\USERS\HANSO\DOCUMENTS\VISUAL STUDIO 2017\PROJECTS\LANG_07\X64\DEBUG\LANG_07.ILK
C:\USERS\HANSO\DOCUMENTS\VISUAL STUDIO 2017\PROJECTS\LANG_07\X64\DEBUG\LANG_07.EXE
C:\USERS\HANSO\DOCUMENTS\VISUAL STUDIO 2017\PROJECTS\LANG_07\X64\DEBUG\LANG_07.PDB
^D:\백업 자료\대학교\수업 PPT 및 자료\프로그래밍언어론\LANG_07\LANG_07\X64\DEBUG\GREAT.OBJ|D:\백업 자료\대학교\수업 PPT 및 자료\프로그래밍언어론\LANG_07\LANG_07\X64\DEBUG\MAIN.OBJ
D:\백업 자료\대학교\수업 PPT 및 자료\프로그래밍언어론\LANG_07\X64\DEBUG\LANG_07.ILK
D:\백업 자료\대학교\수업 PPT 및 자료\프로그래밍언어론\LANG_07\X64\DEBUG\LANG_07.EXE
D:\백업 자료\대학교\수업 PPT 및 자료\프로그래밍언어론\LANG_07\X64\DEBUG\LANG_07.PDB
