#Command: "C:\Program Files (x86)\Microsoft Visual Studio 14.0\VC\bin\link.exe" /ERRORREPORT:PROMPT @C:\Users\공무\AppData\Local\Temp\tmp4f4c65f3a080426db5832eee405c7a14.rsp
^C:\USERS\공무\DESKTOP\조별과제디비2 (2)\조별과제디비2\DEBUG\소스.OBJ
C:\USERS\공무\DESKTOP\조별과제디비2 (2)\DEBUG\조별과제디비2.PDB
#Command: "C:\Program Files (x86)\Microsoft Visual Studio 14.0\VC\bin\link.exe" /ERRORREPORT:PROMPT @C:\Users\공무\AppData\Local\Temp\tmp421aed46efb34daab16591dc906900d7.rsp
^C:\USERS\공무\DESKTOP\대학교\수업 PPT 및 자료\자료구조\조별과제디비2 (2)\조별과제디비2\DEBUG\소스.OBJ
C:\USERS\공무\DESKTOP\대학교\수업 PPT 및 자료\자료구조\조별과제디비2 (2)\DEBUG\조별과제디비2.PDB
