127.0.0.1 - - [17/May/2018:11:49:27 +0900] "GET / HTTP/1.1" 404 1074
0:0:0:0:0:0:0:1 - - [17/May/2018:11:49:28 +0900] "GET /night_bus_seeker/searchwayTmap_test.html HTTP/1.1" 304 -
0:0:0:0:0:0:0:1 - - [17/May/2018:11:49:40 +0900] "GET /night_bus_seeker/searchwayTmap_test.html HTTP/1.1" 304 -
0:0:0:0:0:0:0:1 - - [17/May/2018:11:49:42 +0900] "GET /favicon.ico HTTP/1.1" 404 1085
0:0:0:0:0:0:0:1 - - [17/May/2018:12:45:59 +0900] "GET /night_bus_seeker/searchwayTmap_test.html HTTP/1.1" 200 18412
0:0:0:0:0:0:0:1 - - [17/May/2018:12:49:19 +0900] "GET /night_bus_seeker/searchwayTmap_test.html HTTP/1.1" 200 18412
0:0:0:0:0:0:0:1 - - [17/May/2018:12:50:20 +0900] "GET /night_bus_seeker/searchwayTmap_test.html HTTP/1.1" 200 18310
0:0:0:0:0:0:0:1 - - [17/May/2018:12:50:23 +0900] "GET /night_bus_seeker/getStationByRoute.xml HTTP/1.1" 404 1116
0:0:0:0:0:0:0:1 - - [17/May/2018:12:54:45 +0900] "GET /night_bus_seeker/getStationByRoute.xml HTTP/1.1" 404 1116
0:0:0:0:0:0:0:1 - - [17/May/2018:12:56:15 +0900] "GET /night_bus_seeker/getStationByRoute.xml HTTP/1.1" 404 1116
0:0:0:0:0:0:0:1 - - [17/May/2018:12:58:01 +0900] "GET /night_bus_seeker/searchwayTmap_test.html HTTP/1.1" 200 17449
0:0:0:0:0:0:0:1 - - [17/May/2018:13:01:48 +0900] "GET /night_bus_seeker/searchwayTmap_test.html HTTP/1.1" 200 17489
0:0:0:0:0:0:0:1 - - [17/May/2018:13:04:00 +0900] "GET /night_bus_seeker/searchwayTmap_test.html HTTP/1.1" 200 17657
0:0:0:0:0:0:0:1 - - [17/May/2018:13:06:12 +0900] "GET /night_bus_seeker/searchwayTmap_test.html HTTP/1.1" 200 17655
0:0:0:0:0:0:0:1 - - [17/May/2018:13:08:46 +0900] "GET /night_bus_seeker/searchwayTmap_test.html HTTP/1.1" 200 17718
0:0:0:0:0:0:0:1 - - [17/May/2018:13:08:54 +0900] "GET /night_bus_seeker/searchwayTmap_test.html HTTP/1.1" 304 -
0:0:0:0:0:0:0:1 - - [17/May/2018:13:11:07 +0900] "GET /night_bus_seeker/searchwayTmap_test.html HTTP/1.1" 200 17667
0:0:0:0:0:0:0:1 - - [17/May/2018:13:11:09 +0900] "GET /night_bus_seeker/searchwayTmap_test.html HTTP/1.1" 200 17667
0:0:0:0:0:0:0:1 - - [17/May/2018:13:12:29 +0900] "GET /night_bus_seeker/searchwayTmap_test.html HTTP/1.1" 200 17736
0:0:0:0:0:0:0:1 - - [17/May/2018:13:12:31 +0900] "GET /night_bus_seeker/searchwayTmap_test.html HTTP/1.1" 200 17736
0:0:0:0:0:0:0:1 - - [17/May/2018:13:15:03 +0900] "GET /night_bus_seeker/searchwayTmap_test.html HTTP/1.1" 200 17753
0:0:0:0:0:0:0:1 - - [17/May/2018:13:15:11 +0900] "GET /night_bus_seeker/searchwayTmap_test.html HTTP/1.1" 200 17753
0:0:0:0:0:0:0:1 - - [17/May/2018:13:16:43 +0900] "GET /night_bus_seeker/searchwayTmap_test.html HTTP/1.1" 200 17751
0:0:0:0:0:0:0:1 - - [17/May/2018:13:16:48 +0900] "GET /night_bus_seeker/searchwayTmap_test.html HTTP/1.1" 200 17751
0:0:0:0:0:0:0:1 - - [17/May/2018:13:17:26 +0900] "GET /night_bus_seeker/searchwayTmap_test.html HTTP/1.1" 200 17762
0:0:0:0:0:0:0:1 - - [17/May/2018:13:17:28 +0900] "GET /night_bus_seeker/searchwayTmap_test.html HTTP/1.1" 200 17762
0:0:0:0:0:0:0:1 - - [17/May/2018:13:20:14 +0900] "GET /night_bus_seeker/searchwayTmap_test.html HTTP/1.1" 200 17764
0:0:0:0:0:0:0:1 - - [17/May/2018:13:20:17 +0900] "GET /night_bus_seeker/searchwayTmap_test.html HTTP/1.1" 200 17764
0:0:0:0:0:0:0:1 - - [17/May/2018:13:43:02 +0900] "GET /night_bus_seeker/searchwayTmap_test.html HTTP/1.1" 200 18562
0:0:0:0:0:0:0:1 - - [17/May/2018:13:43:06 +0900] "GET /night_bus_seeker/searchwayTmap_test.html HTTP/1.1" 200 18562
0:0:0:0:0:0:0:1 - - [17/May/2018:13:46:29 +0900] "GET /night_bus_seeker/searchwayTmap_test.html HTTP/1.1" 200 18398
0:0:0:0:0:0:0:1 - - [17/May/2018:13:46:34 +0900] "GET /night_bus_seeker/searchwayTmap_test.html HTTP/1.1" 200 18398
0:0:0:0:0:0:0:1 - - [17/May/2018:13:50:09 +0900] "GET /night_bus_seeker/searchwayTmap_test.html HTTP/1.1" 200 18463
0:0:0:0:0:0:0:1 - - [17/May/2018:13:50:12 +0900] "GET /night_bus_seeker/searchwayTmap_test.html HTTP/1.1" 200 18463
0:0:0:0:0:0:0:1 - - [17/May/2018:13:51:08 +0900] "GET /night_bus_seeker/searchwayTmap_test.html HTTP/1.1" 200 18474
0:0:0:0:0:0:0:1 - - [17/May/2018:13:51:09 +0900] "GET /night_bus_seeker/searchwayTmap_test.html HTTP/1.1" 200 18474
0:0:0:0:0:0:0:1 - - [17/May/2018:14:51:34 +0900] "GET /night_bus_seeker/index.html HTTP/1.1" 200 2100
0:0:0:0:0:0:0:1 - - [17/May/2018:14:51:34 +0900] "GET /night_bus_seeker/nbc_xml.js HTTP/1.1" 200 9079
0:0:0:0:0:0:0:1 - - [17/May/2018:14:51:43 +0900] "GET /night_bus_seeker/index.html HTTP/1.1" 200 2100
0:0:0:0:0:0:0:1 - - [17/May/2018:14:51:43 +0900] "GET /night_bus_seeker/nbc_xml.js HTTP/1.1" 200 9079
0:0:0:0:0:0:0:1 - - [17/May/2018:14:54:02 +0900] "GET /night_bus_seeker/index.html HTTP/1.1" 304 -
0:0:0:0:0:0:0:1 - - [17/May/2018:14:54:12 +0900] "GET /night_bus_seeker/index.html HTTP/1.1" 304 -
0:0:0:0:0:0:0:1 - - [17/May/2018:15:05:00 +0900] "GET /night_bus_seeker/searchwayTmap_test.html HTTP/1.1" 200 18097
0:0:0:0:0:0:0:1 - - [17/May/2018:15:05:07 +0900] "GET /night_bus_seeker/searchwayTmap_test.html HTTP/1.1" 200 18097
0:0:0:0:0:0:0:1 - - [17/May/2018:15:21:53 +0900] "GET /night_bus_seeker/searchwayTmap_test.html HTTP/1.1" 200 18673
0:0:0:0:0:0:0:1 - - [17/May/2018:15:21:58 +0900] "GET /night_bus_seeker/searchwayTmap_test.html HTTP/1.1" 200 18673
0:0:0:0:0:0:0:1 - - [17/May/2018:15:23:10 +0900] "GET /night_bus_seeker/searchwayTmap_test.html HTTP/1.1" 200 18697
0:0:0:0:0:0:0:1 - - [17/May/2018:15:23:14 +0900] "GET /night_bus_seeker/searchwayTmap_test.html HTTP/1.1" 200 18697
0:0:0:0:0:0:0:1 - - [17/May/2018:15:24:53 +0900] "GET /night_bus_seeker/searchwayTmap_test.html HTTP/1.1" 200 18274
0:0:0:0:0:0:0:1 - - [17/May/2018:15:24:55 +0900] "GET /night_bus_seeker/searchwayTmap_test.html HTTP/1.1" 200 18274
0:0:0:0:0:0:0:1 - - [17/May/2018:15:25:00 +0900] "GET /night_bus_seeker/getRoutePath100100585.xml HTTP/1.1" 404 1120
0:0:0:0:0:0:0:1 - - [17/May/2018:15:52:48 +0900] "GET /night_bus_seeker/searchwayTmap_test.html HTTP/1.1" 200 18279
0:0:0:0:0:0:0:1 - - [17/May/2018:15:52:50 +0900] "GET /night_bus_seeker/searchwayTmap_test.html HTTP/1.1" 200 18279
0:0:0:0:0:0:0:1 - - [17/May/2018:15:52:55 +0900] "GET /night_bus_seeker/getStationByRoute100100585.xml HTTP/1.1" 404 1125
0:0:0:0:0:0:0:1 - - [17/May/2018:15:53:43 +0900] "GET /night_bus_seeker/searchwayTmap_test.html HTTP/1.1" 200 18265
0:0:0:0:0:0:0:1 - - [17/May/2018:15:53:45 +0900] "GET /night_bus_seeker/searchwayTmap_test.html HTTP/1.1" 200 18265
0:0:0:0:0:0:0:1 - - [17/May/2018:15:53:50 +0900] "GET /night_bus_seeker/getStaionByRoute.xml HTTP/1.1" 200 83382
0:0:0:0:0:0:0:1 - - [17/May/2018:15:55:55 +0900] "GET /night_bus_seeker/searchwayTmap_test.html HTTP/1.1" 200 18269
0:0:0:0:0:0:0:1 - - [17/May/2018:15:55:59 +0900] "GET /night_bus_seeker/searchwayTmap_test.html HTTP/1.1" 200 18269
0:0:0:0:0:0:0:1 - - [17/May/2018:16:00:18 +0900] "GET /night_bus_seeker/searchwayTmap_test.html HTTP/1.1" 200 18420
0:0:0:0:0:0:0:1 - - [17/May/2018:16:00:21 +0900] "GET /night_bus_seeker/searchwayTmap_test.html HTTP/1.1" 200 18420
0:0:0:0:0:0:0:1 - - [17/May/2018:16:00:50 +0900] "GET /night_bus_seeker/searchwayTmap_test.html HTTP/1.1" 200 18420
0:0:0:0:0:0:0:1 - - [17/May/2018:16:00:51 +0900] "GET /night_bus_seeker/searchwayTmap_test.html HTTP/1.1" 200 18420
0:0:0:0:0:0:0:1 - - [17/May/2018:16:01:20 +0900] "GET /night_bus_seeker/searchwayTmap_test.html HTTP/1.1" 200 18437
0:0:0:0:0:0:0:1 - - [17/May/2018:16:01:22 +0900] "GET /night_bus_seeker/searchwayTmap_test.html HTTP/1.1" 200 18437
0:0:0:0:0:0:0:1 - - [17/May/2018:16:02:08 +0900] "GET /night_bus_seeker/searchwayTmap_test.html HTTP/1.1" 200 18438
0:0:0:0:0:0:0:1 - - [17/May/2018:16:02:09 +0900] "GET /night_bus_seeker/searchwayTmap_test.html HTTP/1.1" 200 18438
0:0:0:0:0:0:0:1 - - [17/May/2018:16:03:35 +0900] "GET /night_bus_seeker/searchwayTmap_test.html HTTP/1.1" 200 18438
0:0:0:0:0:0:0:1 - - [17/May/2018:16:03:38 +0900] "GET /night_bus_seeker/searchwayTmap_test.html HTTP/1.1" 200 18438
0:0:0:0:0:0:0:1 - - [17/May/2018:16:04:56 +0900] "GET /night_bus_seeker/searchwayTmap_test.html HTTP/1.1" 200 18437
0:0:0:0:0:0:0:1 - - [17/May/2018:16:04:59 +0900] "GET /night_bus_seeker/searchwayTmap_test.html HTTP/1.1" 200 18437
0:0:0:0:0:0:0:1 - - [17/May/2018:16:07:19 +0900] "GET /night_bus_seeker/searchwayTmap_test.html HTTP/1.1" 200 18475
0:0:0:0:0:0:0:1 - - [17/May/2018:16:07:22 +0900] "GET /night_bus_seeker/searchwayTmap_test.html HTTP/1.1" 200 18475
0:0:0:0:0:0:0:1 - - [17/May/2018:16:07:26 +0900] "GET /night_bus_seeker/getStaionByRoute.xml HTTP/1.1" 304 -
0:0:0:0:0:0:0:1 - - [17/May/2018:16:07:43 +0900] "GET /night_bus_seeker/searchwayTmap_test.html HTTP/1.1" 200 18476
0:0:0:0:0:0:0:1 - - [17/May/2018:16:07:45 +0900] "GET /night_bus_seeker/searchwayTmap_test.html HTTP/1.1" 200 18476
0:0:0:0:0:0:0:1 - - [17/May/2018:16:08:09 +0900] "GET /night_bus_seeker/searchwayTmap_test.html HTTP/1.1" 200 18475
0:0:0:0:0:0:0:1 - - [17/May/2018:16:08:10 +0900] "GET /night_bus_seeker/searchwayTmap_test.html HTTP/1.1" 200 18475
0:0:0:0:0:0:0:1 - - [17/May/2018:16:09:12 +0900] "GET /night_bus_seeker/searchwayTmap_test.html HTTP/1.1" 200 18476
0:0:0:0:0:0:0:1 - - [17/May/2018:16:09:15 +0900] "GET /night_bus_seeker/searchwayTmap_test.html HTTP/1.1" 200 18476
0:0:0:0:0:0:0:1 - - [17/May/2018:16:10:34 +0900] "GET /night_bus_seeker/searchwayTmap_test.html HTTP/1.1" 200 18573
0:0:0:0:0:0:0:1 - - [17/May/2018:16:10:35 +0900] "GET /night_bus_seeker/searchwayTmap_test.html HTTP/1.1" 200 18573
0:0:0:0:0:0:0:1 - - [17/May/2018:16:11:42 +0900] "GET /night_bus_seeker/searchwayTmap_test.html HTTP/1.1" 200 18478
0:0:0:0:0:0:0:1 - - [17/May/2018:16:11:44 +0900] "GET /night_bus_seeker/searchwayTmap_test.html HTTP/1.1" 200 18478
0:0:0:0:0:0:0:1 - - [17/May/2018:16:13:47 +0900] "GET /night_bus_seeker/searchwayTmap_test.html HTTP/1.1" 200 18486
0:0:0:0:0:0:0:1 - - [17/May/2018:16:13:48 +0900] "GET /night_bus_seeker/searchwayTmap_test.html HTTP/1.1" 200 18486
0:0:0:0:0:0:0:1 - - [17/May/2018:16:22:24 +0900] "GET /night_bus_seeker/searchwayTmap_test.html HTTP/1.1" 200 19193
0:0:0:0:0:0:0:1 - - [17/May/2018:16:22:27 +0900] "GET /night_bus_seeker/searchwayTmap_test.html HTTP/1.1" 200 19193
0:0:0:0:0:0:0:1 - - [17/May/2018:16:22:33 +0900] "GET /night_bus_seeker/getStaionByRoute.xml HTTP/1.1" 304 -
0:0:0:0:0:0:0:1 - - [17/May/2018:16:36:15 +0900] "GET /night_bus_seeker/searchwayTmap_test.html HTTP/1.1" 304 -
0:0:0:0:0:0:0:1 - - [17/May/2018:16:36:17 +0900] "GET /night_bus_seeker/searchwayTmap_test.html HTTP/1.1" 304 -
0:0:0:0:0:0:0:1 - - [17/May/2018:16:39:52 +0900] "GET /night_bus_seeker/getStaionByRoute.xml HTTP/1.1" 304 -
0:0:0:0:0:0:0:1 - - [17/May/2018:16:40:55 +0900] "GET /night_bus_seeker/searchwayTmap_test.html HTTP/1.1" 200 19229
0:0:0:0:0:0:0:1 - - [17/May/2018:16:40:58 +0900] "GET /night_bus_seeker/searchwayTmap_test.html HTTP/1.1" 200 19229
0:0:0:0:0:0:0:1 - - [17/May/2018:16:42:14 +0900] "GET /night_bus_seeker/searchwayTmap_test.html HTTP/1.1" 200 19259
0:0:0:0:0:0:0:1 - - [17/May/2018:16:42:18 +0900] "GET /night_bus_seeker/searchwayTmap_test.html HTTP/1.1" 200 19259
0:0:0:0:0:0:0:1 - - [17/May/2018:16:44:16 +0900] "GET /night_bus_seeker/searchwayTmap_test.html HTTP/1.1" 304 -
0:0:0:0:0:0:0:1 - - [17/May/2018:16:44:18 +0900] "GET /night_bus_seeker/searchwayTmap_test.html HTTP/1.1" 304 -
0:0:0:0:0:0:0:1 - - [17/May/2018:16:51:04 +0900] "GET /night_bus_seeker/searchwayTmap_test.html HTTP/1.1" 200 19297
0:0:0:0:0:0:0:1 - - [17/May/2018:16:51:07 +0900] "GET /night_bus_seeker/searchwayTmap_test.html HTTP/1.1" 200 19297
0:0:0:0:0:0:0:1 - - [17/May/2018:16:55:49 +0900] "GET /night_bus_seeker/searchwayTmap_test.html HTTP/1.1" 200 19344
0:0:0:0:0:0:0:1 - - [17/May/2018:16:55:51 +0900] "GET /night_bus_seeker/searchwayTmap_test.html HTTP/1.1" 200 19344
0:0:0:0:0:0:0:1 - - [17/May/2018:16:56:26 +0900] "GET /night_bus_seeker/searchwayTmap_test.html HTTP/1.1" 200 19343
0:0:0:0:0:0:0:1 - - [17/May/2018:16:56:29 +0900] "GET /night_bus_seeker/searchwayTmap_test.html HTTP/1.1" 200 19343
0:0:0:0:0:0:0:1 - - [17/May/2018:17:01:54 +0900] "GET /night_bus_seeker/searchwayTmap_test.html HTTP/1.1" 200 20463
0:0:0:0:0:0:0:1 - - [17/May/2018:17:02:03 +0900] "GET /night_bus_seeker/searchwayTmap_test.html HTTP/1.1" 200 20463
0:0:0:0:0:0:0:1 - - [17/May/2018:17:02:06 +0900] "GET /night_bus_seeker/%EC%A0%84%EC%B2%B4(%EC%A0%95%EB%A5%98%EC%86%8C%20%EB%B2%88%ED%98%B8%EC%88%9C).txt HTTP/1.1" 200 27800
