0:0:0:0:0:0:0:1 - - [23/May/2018:21:39:58 +0900] "GET /night_bus_seeker/new_server_180522/index.html HTTP/1.1" 200 6533
0:0:0:0:0:0:0:1 - - [23/May/2018:21:39:58 +0900] "GET /night_bus_seeker/new_server_180522/getStaionByRoute100100593.xml HTTP/1.1" 304 -
0:0:0:0:0:0:0:1 - - [23/May/2018:21:39:58 +0900] "GET /night_bus_seeker/new_server_180522/getStaionByRoute100100610.xml HTTP/1.1" 304 -
0:0:0:0:0:0:0:1 - - [23/May/2018:21:39:58 +0900] "GET /night_bus_seeker/new_server_180522/getStaionByRoute100100592.xml HTTP/1.1" 304 -
0:0:0:0:0:0:0:1 - - [23/May/2018:21:39:58 +0900] "GET /night_bus_seeker/new_server_180522/getStaionByRoute100100586.xml HTTP/1.1" 304 -
0:0:0:0:0:0:0:1 - - [23/May/2018:21:39:58 +0900] "GET /night_bus_seeker/new_server_180522/getStaionByRoute100100585.xml HTTP/1.1" 304 -
0:0:0:0:0:0:0:1 - - [23/May/2018:21:39:58 +0900] "GET /night_bus_seeker/new_server_180522/getStaionByRoute100100591.xml HTTP/1.1" 304 -
0:0:0:0:0:0:0:1 - - [23/May/2018:21:39:58 +0900] "GET /night_bus_seeker/new_server_180522/getStaionByRoute100100589.xml HTTP/1.1" 304 -
0:0:0:0:0:0:0:1 - - [23/May/2018:21:39:58 +0900] "GET /night_bus_seeker/new_server_180522/getStaionByRoute100100588.xml HTTP/1.1" 304 -
0:0:0:0:0:0:0:1 - - [23/May/2018:21:39:58 +0900] "GET /night_bus_seeker/new_server_180522/getStaionByRoute115000008.xml HTTP/1.1" 304 -
0:0:0:0:0:0:0:1 - - [23/May/2018:21:40:01 +0900] "GET /night_bus_seeker/new_server_180522/index.html HTTP/1.1" 200 6533
0:0:0:0:0:0:0:1 - - [23/May/2018:21:40:01 +0900] "GET /night_bus_seeker/new_server_180522/getStaionByRoute100100610.xml HTTP/1.1" 304 -
0:0:0:0:0:0:0:1 - - [23/May/2018:21:40:01 +0900] "GET /night_bus_seeker/new_server_180522/getStaionByRoute100100592.xml HTTP/1.1" 304 -
0:0:0:0:0:0:0:1 - - [23/May/2018:21:40:01 +0900] "GET /night_bus_seeker/new_server_180522/getStaionByRoute100100586.xml HTTP/1.1" 304 -
0:0:0:0:0:0:0:1 - - [23/May/2018:21:40:01 +0900] "GET /night_bus_seeker/new_server_180522/getStaionByRoute100100591.xml HTTP/1.1" 304 -
0:0:0:0:0:0:0:1 - - [23/May/2018:21:40:01 +0900] "GET /night_bus_seeker/new_server_180522/getStaionByRoute100100588.xml HTTP/1.1" 304 -
0:0:0:0:0:0:0:1 - - [23/May/2018:21:40:01 +0900] "GET /night_bus_seeker/new_server_180522/getStaionByRoute115000008.xml HTTP/1.1" 304 -
0:0:0:0:0:0:0:1 - - [23/May/2018:21:40:01 +0900] "GET /night_bus_seeker/new_server_180522/getStaionByRoute100100589.xml HTTP/1.1" 304 -
0:0:0:0:0:0:0:1 - - [23/May/2018:21:40:01 +0900] "GET /night_bus_seeker/new_server_180522/getStaionByRoute100100585.xml HTTP/1.1" 304 -
0:0:0:0:0:0:0:1 - - [23/May/2018:21:40:01 +0900] "GET /night_bus_seeker/new_server_180522/getStaionByRoute100100593.xml HTTP/1.1" 304 -
0:0:0:0:0:0:0:1 - - [23/May/2018:21:41:18 +0900] "GET /night_bus_seeker/new_server_180522/index.html HTTP/1.1" 200 6598
0:0:0:0:0:0:0:1 - - [23/May/2018:21:42:46 +0900] "GET /night_bus_seeker/new_server_180522/index.html HTTP/1.1" 200 6641
0:0:0:0:0:0:0:1 - - [23/May/2018:21:44:22 +0900] "GET /night_bus_seeker/new_server_180522/index.html HTTP/1.1" 200 6778
0:0:0:0:0:0:0:1 - - [23/May/2018:22:07:07 +0900] "GET /night_bus_seeker/new_server_180522/index.html HTTP/1.1" 200 6844
0:0:0:0:0:0:0:1 - - [23/May/2018:22:07:34 +0900] "GET /night_bus_seeker/new_server_180522/index.html HTTP/1.1" 200 6849
0:0:0:0:0:0:0:1 - - [23/May/2018:22:07:55 +0900] "GET /night_bus_seeker/new_server_180522/index.html HTTP/1.1" 200 6841
0:0:0:0:0:0:0:1 - - [23/May/2018:22:08:51 +0900] "GET /night_bus_seeker/new_server_180522/index.html HTTP/1.1" 200 6901
0:0:0:0:0:0:0:1 - - [23/May/2018:22:09:39 +0900] "GET /night_bus_seeker/new_server_180522/index.html HTTP/1.1" 200 6939
0:0:0:0:0:0:0:1 - - [23/May/2018:22:10:17 +0900] "GET /night_bus_seeker/new_server_180522/index.html HTTP/1.1" 200 6911
0:0:0:0:0:0:0:1 - - [23/May/2018:22:10:36 +0900] "GET /night_bus_seeker/new_server_180522/index.html HTTP/1.1" 200 6907
0:0:0:0:0:0:0:1 - - [23/May/2018:22:10:52 +0900] "GET /night_bus_seeker/new_server_180522/index.html HTTP/1.1" 200 6905
0:0:0:0:0:0:0:1 - - [23/May/2018:22:11:19 +0900] "GET /night_bus_seeker/new_server_180522/index.html HTTP/1.1" 200 6911
0:0:0:0:0:0:0:1 - - [23/May/2018:22:13:22 +0900] "GET /night_bus_seeker/new_server_180522/index.html HTTP/1.1" 200 6928
0:0:0:0:0:0:0:1 - - [23/May/2018:22:14:04 +0900] "GET /night_bus_seeker/new_server_180522/index.html HTTP/1.1" 200 6930
0:0:0:0:0:0:0:1 - - [23/May/2018:22:15:25 +0900] "GET /night_bus_seeker/new_server_180522/index.html HTTP/1.1" 200 6926
0:0:0:0:0:0:0:1 - - [23/May/2018:22:16:17 +0900] "GET /night_bus_seeker/new_server_180522/index.html HTTP/1.1" 200 6928
0:0:0:0:0:0:0:1 - - [23/May/2018:22:17:07 +0900] "GET /night_bus_seeker/new_server_180522/index.html HTTP/1.1" 200 6932
0:0:0:0:0:0:0:1 - - [23/May/2018:22:41:10 +0900] "GET /night_bus_seeker/new_server_180522/index.html HTTP/1.1" 200 6930
0:0:0:0:0:0:0:1 - - [23/May/2018:22:41:10 +0900] "GET /night_bus_seeker/new_server_180522/getStaionByRoute100100593.xml HTTP/1.1" 200 83388
0:0:0:0:0:0:0:1 - - [23/May/2018:22:41:10 +0900] "GET /night_bus_seeker/new_server_180522/getStaionByRoute100100610.xml HTTP/1.1" 200 80472
0:0:0:0:0:0:0:1 - - [23/May/2018:22:41:10 +0900] "GET /night_bus_seeker/new_server_180522/getStaionByRoute100100592.xml HTTP/1.1" 200 75089
0:0:0:0:0:0:0:1 - - [23/May/2018:22:41:10 +0900] "GET /night_bus_seeker/new_server_180522/getStaionByRoute100100586.xml HTTP/1.1" 200 74330
0:0:0:0:0:0:0:1 - - [23/May/2018:22:41:10 +0900] "GET /night_bus_seeker/new_server_180522/getStaionByRoute100100591.xml HTTP/1.1" 200 54992
0:0:0:0:0:0:0:1 - - [23/May/2018:22:41:10 +0900] "GET /night_bus_seeker/new_server_180522/getStaionByRoute100100585.xml HTTP/1.1" 200 64581
0:0:0:0:0:0:0:1 - - [23/May/2018:22:41:10 +0900] "GET /night_bus_seeker/new_server_180522/getStaionByRoute100100589.xml HTTP/1.1" 200 103724
0:0:0:0:0:0:0:1 - - [23/May/2018:22:41:10 +0900] "GET /night_bus_seeker/new_server_180522/getStaionByRoute100100588.xml HTTP/1.1" 200 90555
0:0:0:0:0:0:0:1 - - [23/May/2018:22:41:10 +0900] "GET /night_bus_seeker/new_server_180522/getStaionByRoute115000008.xml HTTP/1.1" 200 61275
0:0:0:0:0:0:0:1 - - [23/May/2018:22:41:13 +0900] "GET /night_bus_seeker/new_server_180522/index.html HTTP/1.1" 200 6930
0:0:0:0:0:0:0:1 - - [23/May/2018:22:43:04 +0900] "GET /night_bus_seeker/new_server_180522/index.html HTTP/1.1" 200 6928
0:0:0:0:0:0:0:1 - - [23/May/2018:22:43:05 +0900] "GET /night_bus_seeker/new_server_180522/index.html HTTP/1.1" 200 6928
0:0:0:0:0:0:0:1 - - [23/May/2018:22:43:18 +0900] "GET /night_bus_seeker/new_server_180522/index.html HTTP/1.1" 200 6937
0:0:0:0:0:0:0:1 - - [23/May/2018:22:43:20 +0900] "GET /night_bus_seeker/new_server_180522/index.html HTTP/1.1" 200 6937
0:0:0:0:0:0:0:1 - - [23/May/2018:22:45:36 +0900] "GET /night_bus_seeker/new_server_180522/index.html HTTP/1.1" 200 6946
0:0:0:0:0:0:0:1 - - [23/May/2018:22:45:39 +0900] "GET /night_bus_seeker/new_server_180522/index.html HTTP/1.1" 200 6946
0:0:0:0:0:0:0:1 - - [23/May/2018:22:46:44 +0900] "GET /night_bus_seeker/new_server_180522/index.html HTTP/1.1" 200 7024
0:0:0:0:0:0:0:1 - - [23/May/2018:22:46:45 +0900] "GET /night_bus_seeker/new_server_180522/index.html HTTP/1.1" 200 7024
0:0:0:0:0:0:0:1 - - [23/May/2018:22:46:52 +0900] "GET /night_bus_seeker/new_server_180522/index.html HTTP/1.1" 304 -
0:0:0:0:0:0:0:1 - - [23/May/2018:22:47:47 +0900] "GET /night_bus_seeker/new_server_180522/index.html HTTP/1.1" 200 7015
0:0:0:0:0:0:0:1 - - [23/May/2018:22:47:49 +0900] "GET /night_bus_seeker/new_server_180522/index.html HTTP/1.1" 200 7015
0:0:0:0:0:0:0:1 - - [23/May/2018:22:49:06 +0900] "GET /night_bus_seeker/new_server_180522/index.html HTTP/1.1" 200 7032
0:0:0:0:0:0:0:1 - - [23/May/2018:22:49:09 +0900] "GET /night_bus_seeker/new_server_180522/index.html HTTP/1.1" 200 7032
0:0:0:0:0:0:0:1 - - [23/May/2018:22:50:03 +0900] "GET /night_bus_seeker/new_server_180522/index.html HTTP/1.1" 200 7036
0:0:0:0:0:0:0:1 - - [23/May/2018:22:50:04 +0900] "GET /night_bus_seeker/new_server_180522/index.html HTTP/1.1" 200 7036
0:0:0:0:0:0:0:1 - - [23/May/2018:22:54:28 +0900] "GET /night_bus_seeker/new_server_180522/index.html HTTP/1.1" 200 7081
0:0:0:0:0:0:0:1 - - [23/May/2018:22:54:30 +0900] "GET /night_bus_seeker/new_server_180522/index.html HTTP/1.1" 200 7081
0:0:0:0:0:0:0:1 - - [23/May/2018:22:54:45 +0900] "GET /night_bus_seeker/new_server_180522/index.html HTTP/1.1" 200 7072
0:0:0:0:0:0:0:1 - - [23/May/2018:22:54:49 +0900] "GET /night_bus_seeker/new_server_180522/index.html HTTP/1.1" 200 7072
0:0:0:0:0:0:0:1 - - [23/May/2018:22:55:20 +0900] "GET /night_bus_seeker/new_server_180522/index.html HTTP/1.1" 200 7080
0:0:0:0:0:0:0:1 - - [23/May/2018:22:55:22 +0900] "GET /night_bus_seeker/new_server_180522/index.html HTTP/1.1" 200 7080
0:0:0:0:0:0:0:1 - - [23/May/2018:22:56:32 +0900] "GET /night_bus_seeker/new_server_180522/index.html HTTP/1.1" 200 7115
0:0:0:0:0:0:0:1 - - [23/May/2018:22:56:34 +0900] "GET /night_bus_seeker/new_server_180522/index.html HTTP/1.1" 200 7115
0:0:0:0:0:0:0:1 - - [23/May/2018:22:57:12 +0900] "GET /night_bus_seeker/new_server_180522/index.html HTTP/1.1" 200 7120
0:0:0:0:0:0:0:1 - - [23/May/2018:22:57:14 +0900] "GET /night_bus_seeker/new_server_180522/index.html HTTP/1.1" 200 7120
0:0:0:0:0:0:0:1 - - [23/May/2018:22:57:32 +0900] "GET /night_bus_seeker/new_server_180522/index.html HTTP/1.1" 200 7122
0:0:0:0:0:0:0:1 - - [23/May/2018:22:57:33 +0900] "GET /night_bus_seeker/new_server_180522/index.html HTTP/1.1" 200 7122
0:0:0:0:0:0:0:1 - - [23/May/2018:22:58:05 +0900] "GET /night_bus_seeker/new_server_180522/index.html HTTP/1.1" 200 7125
0:0:0:0:0:0:0:1 - - [23/May/2018:22:58:07 +0900] "GET /night_bus_seeker/new_server_180522/index.html HTTP/1.1" 200 7125
0:0:0:0:0:0:0:1 - - [23/May/2018:22:58:24 +0900] "GET /night_bus_seeker/new_server_180522/index.html HTTP/1.1" 200 7117
0:0:0:0:0:0:0:1 - - [23/May/2018:22:58:25 +0900] "GET /night_bus_seeker/new_server_180522/index.html HTTP/1.1" 200 7117
0:0:0:0:0:0:0:1 - - [23/May/2018:22:59:41 +0900] "GET /night_bus_seeker/new_server_180522/index.html HTTP/1.1" 200 7151
0:0:0:0:0:0:0:1 - - [23/May/2018:22:59:43 +0900] "GET /night_bus_seeker/new_server_180522/index.html HTTP/1.1" 200 7151
0:0:0:0:0:0:0:1 - - [23/May/2018:23:00:48 +0900] "GET /night_bus_seeker/new_server_180522/index.html HTTP/1.1" 200 7155
0:0:0:0:0:0:0:1 - - [23/May/2018:23:00:50 +0900] "GET /night_bus_seeker/new_server_180522/index.html HTTP/1.1" 200 7155
0:0:0:0:0:0:0:1 - - [23/May/2018:23:03:44 +0900] "GET /night_bus_seeker/new_server_180522/index.html HTTP/1.1" 200 6907
0:0:0:0:0:0:0:1 - - [23/May/2018:23:03:47 +0900] "GET /night_bus_seeker/new_server_180522/index.html HTTP/1.1" 200 6907
0:0:0:0:0:0:0:1 - - [23/May/2018:23:05:34 +0900] "GET /night_bus_seeker/new_server_180522/index.html HTTP/1.1" 200 6999
0:0:0:0:0:0:0:1 - - [23/May/2018:23:05:37 +0900] "GET /night_bus_seeker/new_server_180522/index.html HTTP/1.1" 200 6999
0:0:0:0:0:0:0:1 - - [23/May/2018:23:08:27 +0900] "GET /night_bus_seeker/new_server_180522/index.html HTTP/1.1" 200 7069
0:0:0:0:0:0:0:1 - - [23/May/2018:23:08:33 +0900] "GET /night_bus_seeker/new_server_180522/index.html HTTP/1.1" 200 7069
0:0:0:0:0:0:0:1 - - [23/May/2018:23:08:55 +0900] "GET /night_bus_seeker/new_server_180522/index.html HTTP/1.1" 200 7069
0:0:0:0:0:0:0:1 - - [23/May/2018:23:08:57 +0900] "GET /night_bus_seeker/new_server_180522/index.html HTTP/1.1" 200 7069
0:0:0:0:0:0:0:1 - - [23/May/2018:23:11:35 +0900] "GET /night_bus_seeker/new_server_180522/index.html HTTP/1.1" 200 7180
0:0:0:0:0:0:0:1 - - [23/May/2018:23:11:38 +0900] "GET /night_bus_seeker/new_server_180522/index.html HTTP/1.1" 200 7180
0:0:0:0:0:0:0:1 - - [23/May/2018:23:12:40 +0900] "GET /night_bus_seeker/new_server_180522/index.html HTTP/1.1" 200 7175
0:0:0:0:0:0:0:1 - - [23/May/2018:23:12:42 +0900] "GET /night_bus_seeker/new_server_180522/index.html HTTP/1.1" 200 7175
0:0:0:0:0:0:0:1 - - [23/May/2018:23:13:17 +0900] "GET /night_bus_seeker/new_server_180522/index.html HTTP/1.1" 200 7173
0:0:0:0:0:0:0:1 - - [23/May/2018:23:13:19 +0900] "GET /night_bus_seeker/new_server_180522/index.html HTTP/1.1" 200 7173
0:0:0:0:0:0:0:1 - - [23/May/2018:23:13:56 +0900] "GET /night_bus_seeker/new_server_180522/index.html HTTP/1.1" 200 7182
0:0:0:0:0:0:0:1 - - [23/May/2018:23:15:02 +0900] "GET /night_bus_seeker/new_server_180522/index.html HTTP/1.1" 200 7175
0:0:0:0:0:0:0:1 - - [23/May/2018:23:15:05 +0900] "GET /night_bus_seeker/new_server_180522/index.html HTTP/1.1" 200 7175
0:0:0:0:0:0:0:1 - - [23/May/2018:23:16:22 +0900] "GET /night_bus_seeker/new_server_180522/index.html HTTP/1.1" 200 7129
0:0:0:0:0:0:0:1 - - [23/May/2018:23:16:23 +0900] "GET /night_bus_seeker/new_server_180522/index.html HTTP/1.1" 200 7129
0:0:0:0:0:0:0:1 - - [23/May/2018:23:17:09 +0900] "GET /night_bus_seeker/new_server_180522/index.html HTTP/1.1" 200 7144
0:0:0:0:0:0:0:1 - - [23/May/2018:23:17:11 +0900] "GET /night_bus_seeker/new_server_180522/index.html HTTP/1.1" 200 7144
0:0:0:0:0:0:0:1 - - [23/May/2018:23:17:19 +0900] "GET /night_bus_seeker/new_server_180522/index.html HTTP/1.1" 200 7143
0:0:0:0:0:0:0:1 - - [23/May/2018:23:17:21 +0900] "GET /night_bus_seeker/new_server_180522/index.html HTTP/1.1" 200 7143
0:0:0:0:0:0:0:1 - - [23/May/2018:23:17:42 +0900] "GET /night_bus_seeker/new_server_180522/index.html HTTP/1.1" 200 7136
0:0:0:0:0:0:0:1 - - [23/May/2018:23:17:44 +0900] "GET /night_bus_seeker/new_server_180522/index.html HTTP/1.1" 200 7136
0:0:0:0:0:0:0:1 - - [23/May/2018:23:19:30 +0900] "GET /night_bus_seeker/new_server_180522/index.html HTTP/1.1" 200 7113
0:0:0:0:0:0:0:1 - - [23/May/2018:23:19:38 +0900] "GET /night_bus_seeker/new_server_180522/index.html HTTP/1.1" 200 7114
0:0:0:0:0:0:0:1 - - [23/May/2018:23:19:43 +0900] "GET /night_bus_seeker/new_server_180522/index.html HTTP/1.1" 200 7114
0:0:0:0:0:0:0:1 - - [23/May/2018:23:20:43 +0900] "GET /night_bus_seeker/new_server_180522/index.html HTTP/1.1" 200 7144
0:0:0:0:0:0:0:1 - - [23/May/2018:23:20:45 +0900] "GET /night_bus_seeker/new_server_180522/index.html HTTP/1.1" 200 7144
0:0:0:0:0:0:0:1 - - [23/May/2018:23:21:17 +0900] "GET /night_bus_seeker/new_server_180522/index.html HTTP/1.1" 200 7151
0:0:0:0:0:0:0:1 - - [23/May/2018:23:21:18 +0900] "GET /night_bus_seeker/new_server_180522/index.html HTTP/1.1" 200 7151
0:0:0:0:0:0:0:1 - - [23/May/2018:23:22:55 +0900] "GET /night_bus_seeker/new_server_180522/index.html HTTP/1.1" 200 7134
0:0:0:0:0:0:0:1 - - [23/May/2018:23:22:56 +0900] "GET /night_bus_seeker/new_server_180522/index.html HTTP/1.1" 200 7134
0:0:0:0:0:0:0:1 - - [23/May/2018:23:23:19 +0900] "GET /night_bus_seeker/new_server_180522/index.html HTTP/1.1" 200 7141
0:0:0:0:0:0:0:1 - - [23/May/2018:23:23:20 +0900] "GET /night_bus_seeker/new_server_180522/index.html HTTP/1.1" 200 7141
0:0:0:0:0:0:0:1 - - [23/May/2018:23:23:41 +0900] "GET /night_bus_seeker/new_server_180522/index.html HTTP/1.1" 200 7143
0:0:0:0:0:0:0:1 - - [23/May/2018:23:23:43 +0900] "GET /night_bus_seeker/new_server_180522/index.html HTTP/1.1" 200 7143
0:0:0:0:0:0:0:1 - - [23/May/2018:23:30:19 +0900] "GET /night_bus_seeker/new_server_180522/index.html HTTP/1.1" 200 7151
0:0:0:0:0:0:0:1 - - [23/May/2018:23:30:22 +0900] "GET /night_bus_seeker/new_server_180522/index.html HTTP/1.1" 200 7151
0:0:0:0:0:0:0:1 - - [23/May/2018:23:34:01 +0900] "GET /night_bus_seeker/new_server_180522/index.html HTTP/1.1" 200 7233
0:0:0:0:0:0:0:1 - - [23/May/2018:23:34:03 +0900] "GET /night_bus_seeker/new_server_180522/index.html HTTP/1.1" 200 7233
0:0:0:0:0:0:0:1 - - [23/May/2018:23:35:13 +0900] "GET /night_bus_seeker/new_server_180522/index.html HTTP/1.1" 200 7265
0:0:0:0:0:0:0:1 - - [23/May/2018:23:35:15 +0900] "GET /night_bus_seeker/new_server_180522/index.html HTTP/1.1" 200 7265
0:0:0:0:0:0:0:1 - - [23/May/2018:23:37:03 +0900] "GET /night_bus_seeker/new_server_180522/index.html HTTP/1.1" 200 7328
0:0:0:0:0:0:0:1 - - [23/May/2018:23:37:04 +0900] "GET /night_bus_seeker/new_server_180522/index.html HTTP/1.1" 200 7328
0:0:0:0:0:0:0:1 - - [23/May/2018:23:37:07 +0900] "GET /night_bus_seeker/new_server_180522/index.html HTTP/1.1" 304 -
0:0:0:0:0:0:0:1 - - [23/May/2018:23:37:50 +0900] "GET /night_bus_seeker/new_server_180522/index.html HTTP/1.1" 200 7330
0:0:0:0:0:0:0:1 - - [23/May/2018:23:37:52 +0900] "GET /night_bus_seeker/new_server_180522/index.html HTTP/1.1" 200 7330
0:0:0:0:0:0:0:1 - - [23/May/2018:23:38:13 +0900] "GET /night_bus_seeker/new_server_180522/index.html HTTP/1.1" 200 7330
0:0:0:0:0:0:0:1 - - [23/May/2018:23:38:15 +0900] "GET /night_bus_seeker/new_server_180522/index.html HTTP/1.1" 200 7330
0:0:0:0:0:0:0:1 - - [23/May/2018:23:39:38 +0900] "GET /night_bus_seeker/new_server_180522/index.html HTTP/1.1" 200 7331
0:0:0:0:0:0:0:1 - - [23/May/2018:23:39:39 +0900] "GET /night_bus_seeker/new_server_180522/index.html HTTP/1.1" 200 7331
0:0:0:0:0:0:0:1 - - [23/May/2018:23:41:28 +0900] "GET /night_bus_seeker/new_server_180522/index.html HTTP/1.1" 200 7456
0:0:0:0:0:0:0:1 - - [23/May/2018:23:41:29 +0900] "GET /night_bus_seeker/new_server_180522/index.html HTTP/1.1" 200 7456
0:0:0:0:0:0:0:1 - - [23/May/2018:23:43:02 +0900] "GET /night_bus_seeker/new_server_180522/index.html HTTP/1.1" 200 7458
0:0:0:0:0:0:0:1 - - [23/May/2018:23:43:04 +0900] "GET /night_bus_seeker/new_server_180522/index.html HTTP/1.1" 200 7458
0:0:0:0:0:0:0:1 - - [23/May/2018:23:43:56 +0900] "GET /night_bus_seeker/new_server_180522/index.html HTTP/1.1" 200 7473
0:0:0:0:0:0:0:1 - - [23/May/2018:23:43:57 +0900] "GET /night_bus_seeker/new_server_180522/index.html HTTP/1.1" 200 7473
0:0:0:0:0:0:0:1 - - [23/May/2018:23:47:14 +0900] "GET /night_bus_seeker/new_server_180522/index.html HTTP/1.1" 200 7060
0:0:0:0:0:0:0:1 - - [23/May/2018:23:47:17 +0900] "GET /night_bus_seeker/new_server_180522/index.html HTTP/1.1" 200 7060
0:0:0:0:0:0:0:1 - - [23/May/2018:23:47:47 +0900] "GET /night_bus_seeker/new_server_180522/index.html HTTP/1.1" 200 7061
0:0:0:0:0:0:0:1 - - [23/May/2018:23:47:50 +0900] "GET /night_bus_seeker/new_server_180522/index.html HTTP/1.1" 200 7061
0:0:0:0:0:0:0:1 - - [23/May/2018:23:52:25 +0900] "GET /night_bus_seeker/new_server_180522/index.html HTTP/1.1" 200 7223
0:0:0:0:0:0:0:1 - - [23/May/2018:23:52:47 +0900] "GET /night_bus_seeker/new_server_180522/index.html HTTP/1.1" 200 7250
0:0:0:0:0:0:0:1 - - [23/May/2018:23:52:49 +0900] "GET /night_bus_seeker/new_server_180522/index.html HTTP/1.1" 200 7250
0:0:0:0:0:0:0:1 - - [23/May/2018:23:53:19 +0900] "GET /night_bus_seeker/new_server_180522/index.html HTTP/1.1" 304 -
0:0:0:0:0:0:0:1 - - [23/May/2018:23:57:07 +0900] "GET /night_bus_seeker/new_server_180522/index.html HTTP/1.1" 200 7402
0:0:0:0:0:0:0:1 - - [23/May/2018:23:57:09 +0900] "GET /night_bus_seeker/new_server_180522/index.html HTTP/1.1" 200 7402
0:0:0:0:0:0:0:1 - - [23/May/2018:23:57:31 +0900] "GET /night_bus_seeker/new_server_180522/index.html HTTP/1.1" 200 7401
0:0:0:0:0:0:0:1 - - [23/May/2018:23:57:34 +0900] "GET /night_bus_seeker/new_server_180522/index.html HTTP/1.1" 200 7401
0:0:0:0:0:0:0:1 - - [23/May/2018:23:58:00 +0900] "GET /night_bus_seeker/new_server_180522/index.html HTTP/1.1" 200 7399
0:0:0:0:0:0:0:1 - - [23/May/2018:23:58:02 +0900] "GET /night_bus_seeker/new_server_180522/index.html HTTP/1.1" 200 7399
