127.0.0.1 - - [01/Jun/2018:00:06:02 +0900] "GET /announce?info_hash=h%ae%c4%5c%9e%da%a5%8c%a1_l%e0%dd%d0%90%2a%92%f0Gp&peer_id=-BT7a3S-G%ad%e2%9f%7c%3b%27%8a%3e%b6%f9%db&port=21696&uploaded=0&downloaded=0&left=1051634845&corrupt=0&key=C3B50389&event=started&numwant=200&compact=1&no_peer_id=1 HTTP/1.1" 404 1082
127.0.0.1 - - [01/Jun/2018:00:36:07 +0900] "GET /announce?info_hash=h%ae%c4%5c%9e%da%a5%8c%a1_l%e0%dd%d0%90%2a%92%f0Gp&peer_id=-BT7a3S-G%ad%e2%9f%7c%3b%27%8a%3e%b6%f9%db&port=21696&uploaded=0&downloaded=0&left=1051634845&corrupt=0&key=43C85C5E&event=started&numwant=200&compact=1&no_peer_id=1 HTTP/1.1" 404 1082
127.0.0.1 - - [01/Jun/2018:01:06:12 +0900] "GET /announce?info_hash=h%ae%c4%5c%9e%da%a5%8c%a1_l%e0%dd%d0%90%2a%92%f0Gp&peer_id=-BT7a3S-G%ad%e2%9f%7c%3b%27%8a%3e%b6%f9%db&port=21696&uploaded=0&downloaded=0&left=1051634845&corrupt=0&key=31AC8347&event=started&numwant=200&compact=1&no_peer_id=1 HTTP/1.1" 404 1082
127.0.0.1 - - [01/Jun/2018:01:36:17 +0900] "GET /announce?info_hash=h%ae%c4%5c%9e%da%a5%8c%a1_l%e0%dd%d0%90%2a%92%f0Gp&peer_id=-BT7a3S-G%ad%e2%9f%7c%3b%27%8a%3e%b6%f9%db&port=21696&uploaded=0&downloaded=0&left=1051634845&corrupt=0&key=8D927813&event=started&numwant=200&compact=1&no_peer_id=1 HTTP/1.1" 404 1082
127.0.0.1 - - [01/Jun/2018:02:06:22 +0900] "GET /announce?info_hash=h%ae%c4%5c%9e%da%a5%8c%a1_l%e0%dd%d0%90%2a%92%f0Gp&peer_id=-BT7a3S-G%ad%e2%9f%7c%3b%27%8a%3e%b6%f9%db&port=21696&uploaded=0&downloaded=0&left=1051634845&corrupt=0&key=F3593D5B&event=started&numwant=200&compact=1&no_peer_id=1 HTTP/1.1" 404 1082
127.0.0.1 - - [01/Jun/2018:02:36:27 +0900] "GET /announce?info_hash=h%ae%c4%5c%9e%da%a5%8c%a1_l%e0%dd%d0%90%2a%92%f0Gp&peer_id=-BT7a3S-G%ad%e2%9f%7c%3b%27%8a%3e%b6%f9%db&port=21696&uploaded=0&downloaded=0&left=1051634845&corrupt=0&key=C2D83A56&event=started&numwant=200&compact=1&no_peer_id=1 HTTP/1.1" 404 1082
127.0.0.1 - - [01/Jun/2018:03:06:32 +0900] "GET /announce?info_hash=h%ae%c4%5c%9e%da%a5%8c%a1_l%e0%dd%d0%90%2a%92%f0Gp&peer_id=-BT7a3S-G%ad%e2%9f%7c%3b%27%8a%3e%b6%f9%db&port=21696&uploaded=0&downloaded=0&left=1051634845&corrupt=0&key=40E8E5D2&event=started&numwant=200&compact=1&no_peer_id=1 HTTP/1.1" 404 1082
127.0.0.1 - - [01/Jun/2018:03:36:37 +0900] "GET /announce?info_hash=h%ae%c4%5c%9e%da%a5%8c%a1_l%e0%dd%d0%90%2a%92%f0Gp&peer_id=-BT7a3S-G%ad%e2%9f%7c%3b%27%8a%3e%b6%f9%db&port=21696&uploaded=0&downloaded=0&left=1051634845&corrupt=0&key=11CFDCB7&event=started&numwant=200&compact=1&no_peer_id=1 HTTP/1.1" 404 1082
