127.0.0.1 - - [14/May/2018:23:53:11 +0900] "GET / HTTP/1.1" 404 1074
0:0:0:0:0:0:0:1 - - [14/May/2018:23:53:12 +0900] "GET /night_bus_seeker/searchwayTmap_test.html HTTP/1.1" 200 12162
0:0:0:0:0:0:0:1 - - [14/May/2018:23:53:22 +0900] "GET /night_bus_seeker/searchwayTmap_test.html HTTP/1.1" 304 -
0:0:0:0:0:0:0:1 - - [14/May/2018:23:53:24 +0900] "GET /favicon.ico HTTP/1.1" 404 1085
0:0:0:0:0:0:0:1 - - [14/May/2018:23:54:00 +0900] "GET /night_bus_seeker/searchwayTmap_test.html HTTP/1.1" 304 -
0:0:0:0:0:0:0:1 - - [14/May/2018:23:56:18 +0900] "GET /night_bus_seeker/searchwayTmap_test.html HTTP/1.1" 304 -
0:0:0:0:0:0:0:1 - - [14/May/2018:23:57:05 +0900] "GET /night_bus_seeker/searchwayTmap_test.html HTTP/1.1" 200 12161
0:0:0:0:0:0:0:1 - - [14/May/2018:23:58:06 +0900] "GET /night_bus_seeker/searchwayTmap_test.html HTTP/1.1" 200 12199
