127.0.0.1 - - [20/Apr/2018:01:46:27 +0900] "GET / HTTP/1.1" 404 1074
0:0:0:0:0:0:0:1 - - [20/Apr/2018:01:46:28 +0900] "GET /night_bus_seeker/Test_map.jsp HTTP/1.1" 200 669
0:0:0:0:0:0:0:1 - - [20/Apr/2018:01:46:35 +0900] "GET /night_bus_seeker/Test_map.jsp HTTP/1.1" 200 669
0:0:0:0:0:0:0:1 - - [20/Apr/2018:01:47:20 +0900] "GET /night_bus_seeker/Test_map.jsp HTTP/1.1" 200 6883
0:0:0:0:0:0:0:1 - - [20/Apr/2018:01:48:17 +0900] "GET /night_bus_seeker/test_map2.html HTTP/1.1" 200 6883
0:0:0:0:0:0:0:1 - - [20/Apr/2018:01:50:01 +0900] "GET /night_bus_seeker/test_map2.html HTTP/1.1" 200 685
0:0:0:0:0:0:0:1 - - [20/Apr/2018:01:54:08 +0900] "GET /night_bus_seeker/Test_map.jsp HTTP/1.1" 200 4596
0:0:0:0:0:0:0:1 - - [20/Apr/2018:01:54:39 +0900] "GET /night_bus_seeker/test_map2.html HTTP/1.1" 200 4596
0:0:0:0:0:0:0:1 - - [20/Apr/2018:01:55:48 +0900] "GET /night_bus_seeker/Test_map.jsp HTTP/1.1" 200 331
0:0:0:0:0:0:0:1 - - [20/Apr/2018:01:56:56 +0900] "GET /night_bus_seeker/test_map2.html HTTP/1.1" 200 669
0:0:0:0:0:0:0:1 - - [20/Apr/2018:01:57:20 +0900] "GET /night_bus_seeker/test_map2.html HTTP/1.1" 200 685
0:0:0:0:0:0:0:1 - - [20/Apr/2018:02:00:41 +0900] "GET /night_bus_seeker/Test_map.jsp HTTP/1.1" 200 6865
0:0:0:0:0:0:0:1 - - [20/Apr/2018:02:04:18 +0900] "GET /night_bus_seeker/Test_map.jsp HTTP/1.1" 200 6865
0:0:0:0:0:0:0:1 - - [20/Apr/2018:02:09:57 +0900] "GET /night_bus_seeker/Test_map.jsp HTTP/1.1" 200 6889
0:0:0:0:0:0:0:1 - - [20/Apr/2018:02:10:45 +0900] "GET /night_bus_seeker/Test_map.jsp HTTP/1.1" 200 6888
0:0:0:0:0:0:0:1 - - [20/Apr/2018:02:11:49 +0900] "GET /night_bus_seeker/Test_map.jsp HTTP/1.1" 200 6888
0:0:0:0:0:0:0:1 - - [20/Apr/2018:02:11:52 +0900] "GET /night_bus_seeker/Test_map.jsp HTTP/1.1" 200 6888
0:0:0:0:0:0:0:1 - - [20/Apr/2018:02:11:53 +0900] "GET /night_bus_seeker/Test_map.jsp HTTP/1.1" 200 6888
0:0:0:0:0:0:0:1 - - [20/Apr/2018:02:11:53 +0900] "GET /night_bus_seeker/Test_map.jsp HTTP/1.1" 200 6888
0:0:0:0:0:0:0:1 - - [20/Apr/2018:02:11:53 +0900] "GET /night_bus_seeker/Test_map.jsp HTTP/1.1" 200 6888
0:0:0:0:0:0:0:1 - - [20/Apr/2018:02:11:53 +0900] "GET /night_bus_seeker/Test_map.jsp HTTP/1.1" 200 6888
0:0:0:0:0:0:0:1 - - [20/Apr/2018:02:12:35 +0900] "GET /night_bus_seeker/test_map2.html HTTP/1.1" 200 6888
0:0:0:0:0:0:0:1 - - [20/Apr/2018:02:13:06 +0900] "GET /night_bus_seeker/Test_map.jsp HTTP/1.1" 200 6888
0:0:0:0:0:0:0:1 - - [20/Apr/2018:02:13:18 +0900] "GET /night_bus_seeker/test_map2.html HTTP/1.1" 304 -
0:0:0:0:0:0:0:1 - - [20/Apr/2018:02:14:11 +0900] "GET /night_bus_seeker/Test_map.jsp HTTP/1.1" 200 315
0:0:0:0:0:0:0:1 - - [20/Apr/2018:02:14:31 +0900] "GET /night_bus_seeker/Test_map.jsp HTTP/1.1" 200 314
0:0:0:0:0:0:0:1 - - [20/Apr/2018:02:18:53 +0900] "GET /night_bus_seeker/test_map2.html HTTP/1.1" 304 -
0:0:0:0:0:0:0:1 - - [20/Apr/2018:02:19:33 +0900] "GET /night_bus_seeker/test_map2.html HTTP/1.1" 200 6918
0:0:0:0:0:0:0:1 - - [20/Apr/2018:02:19:55 +0900] "GET /night_bus_seeker/test_map2.html HTTP/1.1" 200 4620
0:0:0:0:0:0:0:1 - - [20/Apr/2018:02:20:01 +0900] "GET /night_bus_seeker/test_map2.html HTTP/1.1" 304 -
0:0:0:0:0:0:0:1 - - [20/Apr/2018:02:20:49 +0900] "GET /night_bus_seeker/test_map2.html HTTP/1.1" 200 330
0:0:0:0:0:0:0:1 - - [20/Apr/2018:02:23:56 +0900] "GET /night_bus_seeker/test_map2.html HTTP/1.1" 200 685
0:0:0:0:0:0:0:1 - - [20/Apr/2018:02:27:26 +0900] "GET /night_bus_seeker/test_map2.html HTTP/1.1" 200 7643
0:0:0:0:0:0:0:1 - - [20/Apr/2018:02:27:34 +0900] "GET /night_bus_seeker/test_map2.html HTTP/1.1" 304 -
0:0:0:0:0:0:0:1 - - [20/Apr/2018:02:28:20 +0900] "GET /night_bus_seeker/test_map2.html HTTP/1.1" 200 7666
0:0:0:0:0:0:0:1 - - [20/Apr/2018:02:29:24 +0900] "GET /night_bus_seeker/test_map2.html HTTP/1.1" 304 -
0:0:0:0:0:0:0:1 - - [20/Apr/2018:02:30:37 +0900] "GET /night_bus_seeker/test_map2.html HTTP/1.1" 200 7963
0:0:0:0:0:0:0:1 - - [20/Apr/2018:02:32:42 +0900] "GET /night_bus_seeker/test_map2.html HTTP/1.1" 200 7666
0:0:0:0:0:0:0:1 - - [20/Apr/2018:02:35:17 +0900] "GET /night_bus_seeker/test_map2.html HTTP/1.1" 200 713
0:0:0:0:0:0:0:1 - - [20/Apr/2018:02:36:14 +0900] "GET /night_bus_seeker/test_map2.html HTTP/1.1" 200 783
0:0:0:0:0:0:0:1 - - [20/Apr/2018:02:36:42 +0900] "GET /night_bus_seeker/test_map2.html HTTP/1.1" 200 760
0:0:0:0:0:0:0:1 - - [20/Apr/2018:02:38:50 +0900] "GET /night_bus_seeker/test_map2.html HTTP/1.1" 200 795
0:0:0:0:0:0:0:1 - - [20/Apr/2018:02:40:04 +0900] "GET /night_bus_seeker/test_map2.html HTTP/1.1" 200 716
0:0:0:0:0:0:0:1 - - [20/Apr/2018:02:40:22 +0900] "GET /night_bus_seeker/test_map2.html HTTP/1.1" 200 669
0:0:0:0:0:0:0:1 - - [20/Apr/2018:02:40:29 +0900] "GET /night_bus_seeker/test_map2.html HTTP/1.1" 304 -
0:0:0:0:0:0:0:1 - - [20/Apr/2018:02:41:02 +0900] "GET /night_bus_seeker/test_map2.html HTTP/1.1" 200 695
0:0:0:0:0:0:0:1 - - [20/Apr/2018:02:41:40 +0900] "GET /night_bus_seeker/test_map2.html HTTP/1.1" 200 757
0:0:0:0:0:0:0:1 - - [20/Apr/2018:02:42:42 +0900] "GET /night_bus_seeker/test_map2.html HTTP/1.1" 200 1169
0:0:0:0:0:0:0:1 - - [20/Apr/2018:02:44:11 +0900] "GET /night_bus_seeker/test_map2.html HTTP/1.1" 200 755
0:0:0:0:0:0:0:1 - - [20/Apr/2018:02:45:09 +0900] "GET /night_bus_seeker/test_map2.html HTTP/1.1" 200 903
0:0:0:0:0:0:0:1 - - [20/Apr/2018:02:46:39 +0900] "GET /night_bus_seeker/test_map2.html HTTP/1.1" 200 7285
0:0:0:0:0:0:0:1 - - [20/Apr/2018:02:47:57 +0900] "GET /night_bus_seeker/test_map2.html HTTP/1.1" 200 7213
0:0:0:0:0:0:0:1 - - [20/Apr/2018:02:49:32 +0900] "GET /night_bus_seeker/test_map2.html HTTP/1.1" 200 7227
0:0:0:0:0:0:0:1 - - [20/Apr/2018:02:50:47 +0900] "GET /night_bus_seeker/test_map2.html HTTP/1.1" 304 -
0:0:0:0:0:0:0:1 - - [20/Apr/2018:02:51:04 +0900] "GET /night_bus_seeker/test_map2.html HTTP/1.1" 200 7208
0:0:0:0:0:0:0:1 - - [20/Apr/2018:02:53:08 +0900] "GET /night_bus_seeker/test_map2.html HTTP/1.1" 200 1671
0:0:0:0:0:0:0:1 - - [20/Apr/2018:02:53:14 +0900] "GET /night_bus_seeker/test_map2.html HTTP/1.1" 304 -
0:0:0:0:0:0:0:1 - - [20/Apr/2018:02:53:37 +0900] "GET /night_bus_seeker/test_map2.html HTTP/1.1" 200 658
0:0:0:0:0:0:0:1 - - [20/Apr/2018:02:55:54 +0900] "GET /night_bus_seeker/test_map2.html HTTP/1.1" 200 614
0:0:0:0:0:0:0:1 - - [20/Apr/2018:02:57:17 +0900] "GET /night_bus_seeker/test_map2.html HTTP/1.1" 200 1061
0:0:0:0:0:0:0:1 - - [20/Apr/2018:02:57:22 +0900] "GET /night_bus_seeker/test_map2.html HTTP/1.1" 304 -
0:0:0:0:0:0:0:1 - - [20/Apr/2018:02:57:27 +0900] "GET /night_bus_seeker/test_map2.html HTTP/1.1" 200 620
0:0:0:0:0:0:0:1 - - [20/Apr/2018:02:57:34 +0900] "GET /night_bus_seeker/test_map2.html HTTP/1.1" 200 1061
0:0:0:0:0:0:0:1 - - [20/Apr/2018:02:57:44 +0900] "GET /night_bus_seeker/test_map2.html HTTP/1.1" 200 1042
0:0:0:0:0:0:0:1 - - [20/Apr/2018:02:57:50 +0900] "GET /night_bus_seeker/test_map2.html HTTP/1.1" 304 -
0:0:0:0:0:0:0:1 - - [20/Apr/2018:02:58:03 +0900] "GET /night_bus_seeker/test_map2.html HTTP/1.1" 200 613
0:0:0:0:0:0:0:1 - - [20/Apr/2018:02:58:11 +0900] "GET /night_bus_seeker/test_map2.html HTTP/1.1" 200 1060
0:0:0:0:0:0:0:1 - - [20/Apr/2018:02:58:18 +0900] "GET /night_bus_seeker/test_map2.html HTTP/1.1" 200 613
0:0:0:0:0:0:0:1 - - [20/Apr/2018:02:59:28 +0900] "GET /night_bus_seeker/test_map2.html HTTP/1.1" 200 804
0:0:0:0:0:0:0:1 - - [20/Apr/2018:03:00:58 +0900] "GET /night_bus_seeker/test_map2.html HTTP/1.1" 200 1262
0:0:0:0:0:0:0:1 - - [20/Apr/2018:03:01:08 +0900] "GET /night_bus_seeker/test_map2.html HTTP/1.1" 200 808
0:0:0:0:0:0:0:1 - - [20/Apr/2018:03:01:15 +0900] "GET /night_bus_seeker/test_map2.html HTTP/1.1" 200 1262
0:0:0:0:0:0:0:1 - - [20/Apr/2018:03:01:48 +0900] "GET /night_bus_seeker/test_map2.html HTTP/1.1" 200 1860
0:0:0:0:0:0:0:1 - - [20/Apr/2018:03:02:34 +0900] "GET /night_bus_seeker/test_map2.html HTTP/1.1" 200 886
0:0:0:0:0:0:0:1 - - [20/Apr/2018:03:03:57 +0900] "GET /night_bus_seeker/test_map2.html HTTP/1.1" 200 1930
0:0:0:0:0:0:0:1 - - [20/Apr/2018:03:04:23 +0900] "GET /night_bus_seeker/test_map2.html HTTP/1.1" 200 2836
0:0:0:0:0:0:0:1 - - [20/Apr/2018:03:05:03 +0900] "GET /night_bus_seeker/test_map2.html HTTP/1.1" 200 3529
0:0:0:0:0:0:0:1 - - [20/Apr/2018:03:05:08 +0900] "GET /night_bus_seeker/test_map2.html HTTP/1.1" 304 -
0:0:0:0:0:0:0:1 - - [20/Apr/2018:03:05:13 +0900] "GET /night_bus_seeker/test_map2.html HTTP/1.1" 200 2844
0:0:0:0:0:0:0:1 - - [20/Apr/2018:03:05:52 +0900] "GET /night_bus_seeker/test_map2.html HTTP/1.1" 200 3553
0:0:0:0:0:0:0:1 - - [20/Apr/2018:03:07:12 +0900] "GET /night_bus_seeker/test_map2.html HTTP/1.1" 200 5542
0:0:0:0:0:0:0:1 - - [20/Apr/2018:03:07:21 +0900] "GET /night_bus_seeker/test_map2.html HTTP/1.1" 304 -
0:0:0:0:0:0:0:1 - - [20/Apr/2018:03:08:08 +0900] "GET /night_bus_seeker/test_map2.html HTTP/1.1" 304 -
0:0:0:0:0:0:0:1 - - [20/Apr/2018:03:09:20 +0900] "GET /night_bus_seeker/test_map2.html HTTP/1.1" 200 7409
0:0:0:0:0:0:0:1 - - [20/Apr/2018:03:10:29 +0900] "GET /night_bus_seeker/test_map2.html HTTP/1.1" 200 7433
0:0:0:0:0:0:0:1 - - [20/Apr/2018:03:11:40 +0900] "GET /night_bus_seeker/test_map2.html HTTP/1.1" 200 7407
0:0:0:0:0:0:0:1 - - [20/Apr/2018:03:11:46 +0900] "GET /night_bus_seeker/test_map2.html HTTP/1.1" 304 -
0:0:0:0:0:0:0:1 - - [20/Apr/2018:03:12:38 +0900] "GET /night_bus_seeker/test_map2.html HTTP/1.1" 200 7410
0:0:0:0:0:0:0:1 - - [20/Apr/2018:03:12:57 +0900] "GET /night_bus_seeker/test_map2.html HTTP/1.1" 200 7434
0:0:0:0:0:0:0:1 - - [20/Apr/2018:03:13:56 +0900] "GET /night_bus_seeker/test_map2.html HTTP/1.1" 200 7433
0:0:0:0:0:0:0:1 - - [20/Apr/2018:03:15:30 +0900] "GET /night_bus_seeker/test_map2.html HTTP/1.1" 200 7437
