﻿H1 하프클럽 T53146 조각배색티셔츠 상의 34800원 s m l xl xxl / blue black
H2 하프클럽 T53082 눈꽃와이어카라티 상의 33800원 s m l xl xxl / blue black gray
H3 하프클럽 T53059 망사가디건세트 상의 53800원 m l / white pink blue black
H4 하프클럽 J3677 블루라인마자켓 자켓 128800원 s m l / gray
J3 지프 P9067 7부통팬츠 하의 39500원 m l xl xxl / black red
S1 쉬즈미스 N1879 쉬폰주름원피스 원피스 65900원 s m l / black
V1 브이컷 P90603 사각포켓팬츠 하의 15800원 s m l / green beige blue black
V3 브이컷 P90591 조각면마바지 하의 29900원 s m l xl / white blue gray black

lee
	S1	쉬즈미스 쉬폰주름원피스	 s  black   65900 원
	J3	지프 7부통팬츠	 m  red     39500 원
	S1	쉬즈미스 쉬폰주름원피스	 m  black   65900 원
	V3	브이컷 조각면마바지	 l  gray    29900 원
총 4건, 합계 : 201200원

kim
	H1	하프클럽 조각배색티셔츠	 m  black   34800 원
	H3	하프클럽 망사가디건세트	 m  black   53800 원
	V3	브이컷 조각면마바지	 m  gray    29900 원
	S1	쉬즈미스 쉬폰주름원피스	 m  black   65900 원
	V1	브이컷 사각포켓팬츠	 m  black   15800 원
총 5건, 합계 : 200200원
