﻿
1 T-01 3 후드티_ST1 5000 f s/m/l
1 T-02 3 후드티_ST2 10000 c s/m/l/xl
2 T-03 4 면티_ST1 6000 f s/m/l/xl y 4000
1 T-04 4 면티_ST2 10000 f xs/s/m/l
1 T-05 4 면티_ST3 8800 c s/m/l
2 B-01 7 치마_주름_롱 10000 f s/m/l n 7000
2 B-02 7 치마_주름_숏 8000 f s/m/l y 6000
1 B-03 6 반바지_청_숏 12000 f s/m/l
1 B-04 5 바지_면_일자 10000 m s/m/l
1 B-05 2 츄리닝 8000 c s/m/l
2 T-06 4 줄무늬티 7000 c s/m/l/xl n 5500