열혈강의 객체 지향 자바
1234 2010 프리렉
1 강요한
자바의 정석
2345 2010 도우출판
1 남궁성
초보자를 위한 자바 2000제
3456 2005 정보문화사
1 조효은
자바 프로그래밍
4567 2012 비팬북스
2 풀J디텔 하비M디텔
명품 자바 프로그래밍
5678 2013 생능출판사
2 황기태 김효수
이것이 자바자
6677 2015 한빛미디어
1 신용권
비전공자를 위한 자바 프로그래밍
9988 2014 한빛미디어
1 강희은
자바 프로그래밍 면접 이렇게 준비한다.
1123 2015 한빛미디어
2 노엘마크엄 정원천