﻿
201113082 김성재 24 컴퓨터과학 3 921117 M 자료구조 이산수학 컴퓨터구조 0
201113083 성정기 24 컴퓨터과학 3 920422 M C언어의정석 열혈자료구조 0 
201113084 고윤아 24 컴퓨터과학 3 920410 F 명품자바프로그래밍 파피용 정글만리1 0
201113152 엄준영 24 컴퓨터과학 3 921214 M 컴퓨터구조 C언어콘서트 0
201113150 장윤이 24 컴퓨터과학 4 920602 F 전자계산기구조 C언어콘서트 JAVA의정석 시나공_정보처리기사(실기) 0 
201310121 신선아 23 컴퓨터과학 3 930530 F 명품자바프로그래밍 자료구조 열혈자료구조 0 
201310122 공다예 24 컴퓨터과학 3 920314 F 담론 심플 논어 자유론 철학의힘 0
201310123 임승원 27 컴퓨터과학 3 891222 M 바른마음 열혈자료구조 명품자바프로그래밍 0
201310124 주재훈 27 컴퓨터과학 3 891001 M 뉴스의시대 예술수업 자유론 자료구조 0
201310119 김건우 26 컴퓨터과학 3 900405 M Power_JAVA 시나공_컴퓨터활용능력1급필기 행복만을_보았다 0
201310118 이원석 26 컴퓨터과학 3 901111 M 심리정치 연금술사 싸드 0
201310117 김도환 25 컴퓨터과학 3 910525 M C언어콘서트 전자계산기구조 담론 예술수업 0
201011223 김두회 24 컴퓨터과학 4 920521 M 컴퓨터구조(정량적접근방식) JAVA의정석 칼의노래 연금술사 0 
201311312 김동현 22 컴퓨터과학 2 941103 M 정글만리1 데빌스스타 오사카_소년탐정단 다시 0
201310021 김성관 22 컴퓨터과학 2 940226 M 투명인간 시인동주 0
201311311 김재훈 22 컴퓨터과학 2 940302 M 시나공_정보처리기사(실기) 시나공_컴퓨터활용능력1급필기 C언어콘서트 0
201210140 김원철 23 컴퓨터과학 2 931020 M 컴퓨터구조 이산수학 피로사회 0
201310532 김준철 22 컴퓨터과학 2 930218 M 명심보감 바른마음 비폭력대화 0
201311018 이종철 22 컴퓨터과학 3 941211 M 뉴스의시대 사물의철학 정의란_무엇인가 0
201511082 박수지 20 컴퓨터과학 1 920517 F 자료구조 Power_JAVA 담론 0
201511083 김은지 20 컴퓨터과학 1 920413 F 컴퓨터구조 이산수학 C언어의정석 0 
201511084 정은영 20 컴퓨터과학 1 920910 F 명품자바프로그래밍 파피용 정글만리3 0
201511152 김온아 20 컴퓨터과학 1 921014 F 뿌리이야기 꾸뻬씨의_행복여행 미움받을_용기 0
201111150 최시영 23 컴퓨터과학 4 921212 F 담론 자유론 투명인간 0 
201511121 공은영 23 컴퓨터과학 1 930115 F 미움받을_용기 심플 논어 0 
201511122 노다예 20 컴퓨터과학 1 920816 F 담론 심플 논어 자유론 철학의힘 0
201511123 류승원 20 컴퓨터과학 1 891202 F 여덟단어 미움받을_용기 예술수업 0
201511120 송은희 20 컴퓨터과학 1 891102 F 허즈번드_시크릿 피로사회 생각해봤어? 0
201511119 이가은 20 컴퓨터과학 1 901125 F 소크라테스의_변명 허즈번드_시크릿 행복만을_보았다 0
201511118 김예림 21 컴퓨터과학 1 901102 F 아트인문학_여행 센트럴파크 창문넘어_도망친_100세노인 0
201511117 송신영 21 컴퓨터과학 1 910325 F 나미야_잡화점의_기적 음식의언어 허즈번드_시크릿 0
201011223 김은정 23 컴퓨터과학 4 920201 F 정글만리3 빅데이터_인문학 헤세로_가는길 0 
201113312 김누리 24 컴퓨터과학 4 941113 F 1그램의용기 냅킨노트 0
201011021 최예나 24 컴퓨터과학 4 940216 F 햄릿 편지 동치미 0
201111311 임다연 23 컴퓨터과학 4 940702 F 파우스트1 인생수업 0
201211140 강혜린 23 컴퓨터과학 4 930720 F 고도를_기다리며 혼자의발견 인생수업 0
201211532 강지영 25 컴퓨터과학 4 930818 F 빅퀘스천 행복만을_보았다 뿌리이야기 0
201211018 강수영 24 컴퓨터과학 4 941101 F 뉴스의시대 싸드 정의란_무엇인가 0
201115082 이성재 24 국어국문 3 920517 M 정글만리2 대성당 0
201115083 성정석 24 국어국문 3 920413 M 오사카_소년탐정단 50가지_그림자심연1 0 
201115084 김은아 24 국어국문 3 920910 F 명품자바프로그래밍 파피용 정글만리1 0
201115152 최진영 24 국어국문 3 921014 M 뿌리이야기 꾸뻬씨의_행복여행 파피용 데빌스스타 0
201115150 이지영 24 국어국문 4 921212 F 어린왕자 난장이가_쏘아올린_작은공 다시 정글만리2 0 
201315121 심은아 23 국어국문 3 930115 F 미움받을_용기 심플 음식의언어 여덟단어 담론 0 
201315122 김다예 24 국어국문 3 920816 F 담론 심플 논어 자유론 철학의힘 0
201315123 최승원 27 국어국문 3 891202 M 바른마음 미움받을_용기 논어 0
201315124 김재훈 27 국어국문 3 891102 M 바른마음 정의란_무엇인가 생각해봤어? 아트인문학_여행 0
201315119 김건욱 26 국어국문 3 901125 M 소크라테스의_변명 허즈번드_시크릿 행복만을_보았다 0
201315118 최원식 26 국어국문 3 901102 M 나미야_잡화점의_기적 센트럴파크 창문넘어_도망친_100세노인 0
201315117 김도훈 25 국어국문 3 910325 M 나미야_잡화점의_기적 창문넘어_도망친_100세노인 허즈번드_시크릿 0
201015223 김종철 24 국어국문 4 920201 M 정글만리1 정글만리2 화장 가면산장_살인사건 0 
201315312 최동현 22 국어국문 2 941113 M 정글만리3 오사카_소년탐정단 싸드 0
201315021 최이관 22 국어국문 2 940216 M 투명인간 대성당 정글만리3 0
201315311 박지성 22 국어국문 2 940702 M 파피용 데빌스스타 정글만리1 0
201215140 이원순 23 국어국문 2 930720 M 명심보감 심리정치 자유론 예술수업 0
201315532 여준수 22 국어국문 2 930818 M 빅데이터_인문학 행복만을_보았다 뿌리이야기 0
201315018 박종순 22 국어국문 3 941101 M 뉴스의시대 싸드 정의란_무엇인가 0
201515082 김수지 20 국어국문 1 920517 F 정글만리2 대성당 0
201515083 정은지 20 국어국문 1 920413 F 오사카_소년탐정단 50가지_그림자심연1 0 
201515084 송은영 20 국어국문 1 920910 F 명품자바프로그래밍 파피용 정글만리1 0
201515152 김영아 20 국어국문 1 921014 F 뿌리이야기 꾸뻬씨의_행복여행 파피용 데빌스스타 0
201115150 지영 23 국어국문 4 921212 F 어린왕자 난장이가_쏘아올린_작은공 다시 정글만리2 0 
201515121 심은영 23 국어국문 1 930115 F 미움받을_용기 심플 음식의언어 여덟단어 담론 0 
201515122 송다예 20 국어국문 1 920816 F 담론 심플 논어 자유론 철학의힘 0
201515123 김승원 20 국어국문 1 891202 F 바른마음 미움받을_용기 논어 0
201515120 송재희 20 국어국문 1 891102 F 바른마음 정의란_무엇인가 생각해봤어? 아트인문학_여행 0
201515119 송가은 20 국어국문 1 901125 F 소크라테스의_변명 허즈번드_시크릿 행복만을_보았다 0
201515118 김예지 21 국어국문 1 901102 F 나미야_잡화점의_기적 센트럴파크 창문넘어_도망친_100세노인 0
201515117 송아영 21 국어국문 1 910325 F 나미야_잡화점의_기적 창문넘어_도망친_100세노인 허즈번드_시크릿 0
201015223 김은영 23 국어국문 4 920201 F 정글만리1 정글만리2 화장 가면산장_살인사건 0 
201115312 김가을 24 국어국문 4 941113 F 정글만리3 오사카_소년탐정단 싸드 0
201015021 김예나 24 국어국문 4 940216 F 투명인간 대성당 정글만리3 0
201115311 노다연 23 국어국문 4 940702 F 파피용 데빌스스타 정글만리1 0
201215140 백혜린 23 국어국문 4 930720 F 명심보감 심리정치 자유론 예술수업 0
201215532 백지영 25 국어국문 4 930818 F 빅데이터_인문학 행복만을_보았다 뿌리이야기 0
201215018 박수영 24 국어국문 4 941101 F 뉴스의시대 싸드 정의란_무엇인가 0
201115018 정수지 24 국어국문 4 941201 F 0