25101	127.1739006867	37.5640265899	서울역환승센터	강동공영차고지
25103	127.1704472778	37.5611616476	서울역환승센터	고덕리엔파크1단지
25105	127.170898532	37.5590091865	서울역환승센터	해뜨는주유소
25131	127.169318725	37.5571552114	서울역환승센터	상일동역2번출구.고덕전통시장
25133	127.1644288509	37.5565646975	서울역환승센터	상일동역1번출구
25135	127.1608318166	37.5560578309	서울역환승센터	고덕주공2단지
25137	127.1581417355	37.5556884118	서울역환승센터	고덕평생학습관.온조대왕체육관
25139	127.1559350711	37.5553624475	서울역환승센터	고덕역
25141	127.1494506884	37.5547887265	서울역환승센터	배재중고등학교
25143	127.146584873	37.5547923189	서울역환승센터	서울장애인종합복지관
25233	127.1439708949	37.5521499237	서울역환승센터	명일역2번출구
25234	127.143670283	37.5500246088	서울역환승센터	명일역1번출구.명일전통시장
25236	127.143327835	37.5479101562	서울역환승센터	굽은다리사거리
25348	127.1427152264	37.5453580966	서울역환승센터	굽은다리역구민회관.강동홈플러스
25238	127.1419714912	37.5434576822	서울역환승센터	십자성마을
25312	127.1406623307	37.5399404705	서울역환승센터	천동초교입구사거리
25240	127.1399400757	37.5379724338	서울역환승센터	길동역1번출구
25242	127.1389352122	37.5355253414	서울역환승센터	예닮요양병원
25123	127.1375233178	37.5344456779	서울역환승센터	길동사거리.강동세무서
25125	127.1321594619	37.5361512705	서울역환승센터	강동역1번출구.동신중학교
25127	127.1271403225	37.5377553257	서울역환승센터	천호역5번출구.천호사거리
05171	127.1032294655	37.5456136761	서울역환승센터	광나루역
05256	127.093572	37.54906	서울역환승센터	새밭교회앞
05006	127.0901491873	37.5512084718	서울역환승센터	어린이대공원후문아차산역
05005	127.086550509	37.5544965543	서울역환승센터	중곡동입구삼거리
05003	127.082473132	37.5560989145	서울역환승센터	군자역4번출구.용마초등학교
05001	127.0756461481	37.5587409868	서울역환승센터	군자교입구
06003	127.0672869559	37.5611510646	서울역환승센터	장한평역
06002	127.0612838214	37.5619653169	서울역환승센터	청년회의소
06001	127.0550604632	37.5651870868	서울역환승센터	답십리역사거리
06005	127.0447281029	37.5717559096	서울역환승센터	신답초등학교앞
06006	127.0383261303	37.5740577469	서울역환승센터	동대문구청
06007	127.0309536211	37.5739292519	서울역환승센터	서울시동부병원
06008	127.0257176822	37.574427911	서울역환승센터	신설동역.서울풍물시장
01044	127.0196720085	37.5742434484	서울역환승센터	동묘앞
01037	127.0120461121	37.5719529259	서울역환승센터	동대문(흥인지문)
01288	127.0065911394	37.5724174899	서울역환승센터	종로중부새마을금고
02173	127.0083555318	37.5673541422	서울역환승센터	동대문역사문화공원
02172	127.0058434821	37.5664631128	서울역환승센터	을지로6가.국립중앙의료원
02165	126.999258524	37.5668182855	서울역환승센터	을지로5가
02162	126.9962179152	37.5666470197	서울역환승센터	을지로4가
02160	126.9903755882	37.5663556351	서울역환승센터	을지로3가
02158	126.9865233528	37.566246226	서울역환승센터	을지로2가.기업은행본점.서울노동청
02140	126.982205	37.56451	서울역환승센터	롯데백화점
02141	126.9815478394	37.5628907847	서울역환승센터	해운센터.롯데영프라자
02127	126.97792	37.561175	서울역환승센터	북창동.남대문시장
02008	126.9737783904	37.5586388574	서울역환승센터	숭례문
02005	126.9727617448	37.5553876977	서울역환승센터	서울역버스환승센터
02122	126.97402	37.558487	강동공영차고지	숭례문
02219	126.978580386	37.5609394169	강동공영차고지	남대문시장 앞
02142	126.982008	37.562885	강동공영차고지	롯데영프라자
02156	126.9853902774	37.5658757422	강동공영차고지	을지로입구.로얄호텔
02159	126.9888281722	37.5660094793	강동공영차고지	을지로2가.파인에비뉴
02161	126.9913276421	37.5661205237	강동공영차고지	을지로3가
02163	126.9968473297	37.5664010399	강동공영차고지	을지로4가.베스트웨스턴국도
02166	127.0011150411	37.5666200422	강동공영차고지	을지로5가.중부시장
02169	127.006377762	37.5660747142	강동공영차고지	을지로6가.국립중앙의료원
02174	127.0090234611	37.5676036956	강동공영차고지	동대문역사문화공원
01023	127.0134512388	37.5723023219	강동공영차고지	동대문역.흥인지문
01262	127.0204373408	37.5742721533	강동공영차고지	숭인동
06163	127.0245652731	37.574759758	강동공영차고지	동대문우체국.서울풍물시장
06162	127.0317924634	37.5737704369	강동공영차고지	용두동
06161	127.037268	37.573977	강동공영차고지	용두역
06017	127.0399889148	37.5734588708	강동공영차고지	동대문구청
06004	127.044292	37.571753	강동공영차고지	신답초등학교앞
04001	127.0543961703	37.5654496127	강동공영차고지	답십리역사거리
04002	127.0604880807	37.5619909579	강동공영차고지	청년회의소.서울새활용플라자
04003	127.0661006787	37.5611445259	강동공영차고지	장한평역
05002	127.0749002776	37.5587937258	강동공영차고지	군자교입구
05004	127.081565514	37.5562229948	강동공영차고지	군자역5번출구.용마초등학교
05007	127.0892452052	37.5524229328	강동공영차고지	어린이대공원후문아차산역
05257	127.0924518465	37.5489476469	강동공영차고지	새밭교회
05170	127.103304572	37.5450936784	강동공영차고지	광나루역
25128	127.1271630284	37.5371326436	강동공영차고지	천호역6번출구.천호사거리
25012	127.1318083316	37.5359543227	강동공영차고지	강동역
25010	127.135989316	37.5346429923	강동공영차고지	길동사거리.강동세무서
25243	127.1392535664	37.5351257806	강동공영차고지	예닮요양병원
25241	127.1400078708	37.5373136521	강동공영차고지	길동역3번출구
25311	127.1410120284	37.5399553721	강동공영차고지	천동초교입구사거리
25239	127.1421222263	37.5429790193	강동공영차고지	십자성마을
25349	127.143063	37.545612	강동공영차고지	굽은다리역구민회관.강동홈플러스
25237	127.143558605	37.5472655932	강동공영차고지	굽은다리사거리
25235	127.1440658281	37.5503142792	강동공영차고지	명일역4번출구.명일전통시장
25232	127.1442239125	37.5518873966	강동공영차고지	명일역3번출구
25144	127.1463942816	37.5545663809	강동공영차고지	서울장애인종합복지관
25142	127.1494637377	37.5545219863	강동공영차고지	배재중고등학교
25140	127.155082036	37.5549995292	강동공영차고지	고덕역
25138	127.1575083211	37.5553522495	강동공영차고지	고덕평생학습관.온조대왕체육관
25136	127.1602719709	37.5557278909	강동공영차고지	고덕주공2단지
25134	127.1647011741	37.5563570665	강동공영차고지	상일동역4번출구
25132	127.1691449801	37.5569040555	강동공영차고지	상일동역3번출구.고덕전통시장
25106	127.170989	37.559757	강동공영차고지	해뜨는주유소
25104	127.170696	37.561365	강동공영차고지	고덕리엔파크1단지
25102	127.173983	37.564034	강동공영차고지	강동공영차고지
