^C:\USERS\공무\DESKTOP\대학교\수업 PPT 및 자료\자료구조\조별과제디비2 (2)\조별과제디비2\소스.CPP
C:\USERS\공무\DESKTOP\대학교\수업 PPT 및 자료\자료구조\조별과제디비2 (2)\조별과제디비2\DEBUG\VC140.PDB
C:\USERS\공무\DESKTOP\대학교\수업 PPT 및 자료\자료구조\조별과제디비2 (2)\조별과제디비2\DEBUG\VC140.IDB
C:\USERS\공무\DESKTOP\대학교\수업 PPT 및 자료\자료구조\조별과제디비2 (2)\조별과제디비2\DEBUG\소스.OBJ
