#Command: "C:\Program Files (x86)\Microsoft Visual Studio 14.0\VC\bin\link.exe" /ERRORREPORT:PROMPT @C:\Users\공무\AppData\Local\Temp\tmpead9eb6fe7754d59ac63173bcbefe915.rsp /incremental /nologo /fullbuild
^C:\USERS\공무\DESKTOP\자료구조 조별과제(최종)\자료구조 조별과제(최종)\DEBUG\소스.OBJ
C:\USERS\공무\DESKTOP\자료구조 조별과제(최종)\DEBUG\자료구조 조별과제(최종).PDB
