﻿
DD746 창의기초설계 1 3 김현아 수123 종강502 20 전필 
DD747 창의기초설계 1 3 윤원현 금123 종강202 20 전필
DD801 C프로그래밍 1 3 이은정 월678 8308 20 전필
DD802 C프로그래밍 1 3 김남기 목123 8308 20 전필
DD803 C프로그래밍 1 3 권준희 월678 8001 20 전필
DD748 시스템소프트웨어 2 3 김광훈 수123 종강208 30 선필 
DD749 시스템소프트웨어 2 3 김광훈 화123 종강208 15 선필
AS705 컴퓨터네트워크 2 3 김남기 월678 8003 30 선필
AS706 컴퓨터네트워크 2 3 김남기 화123 8003 15 선필
DD804 자료구조설계 2 3 정경용 수678 8308 20 선필
DD805 자료구조설계 2 3 정경용 목123 8308 25 선필
DD771 계산이론 2 3 배상원 금123 종강407 30 전공
DD772 계산이론 2 3 배상원 목123 종강407 15 전공
DD806 자바프로그래밍2 2 3 이은정 금678 8308 20 선필
DD807 자바프로그래밍2 2 3 이병대 월123 8001 20 선필
DD808 자바프로그래밍2 2 3 이은정 화678 8001 20 선필
DD316 소프트웨어공학 3 3 권기현 월678 8003 20 선필
DD317 소프트웨어공학 3 3 권기현 금123 8006 20 선필
DD318 인공지능 3 3 김인철 월678 8002 30 선필
DD319 인공지능 3 3 김인철 화678 8002 30 선필
DD755 분산및병렬처리 3 3 안진호 월123 6502 25 전공
DD756 분산및병렬처리 3 3 안진호 수123 6504 20 전공
DD709 컴퓨터그래픽스 3 3 전준철 수678 8003 30 선필
DD710 컴퓨터그래픽스 3 3 전준철 목123 8002 20 선필
DD754 컴퓨터교재연구지도법 3 3 배상원 수678 종강206 25 전공
DD753 웹서비스설계 3 3 김희열 화123 8308 25 선필
DD752 웹서비스설계 3 3 김희열 목678 8308 20 선필
DD320 컴파일러 4 3 이은정 수678 8308 30 전공
DD031 컴퓨터과학특강 4 3 김인철 화678 종강506 20 전공
DD751 내장형시스템 4 3 이병대 목123 8308 30 전공
DD880 데이터베이스응용 4 3 이병대 목678 8308 10 전공
DD881 데이터베이스응용 4 3 권준희 금123 8308 15 전공
AS202 인간발달과자기이해 0  3 김영구 월123 종강303 50 교양
AS936 적응과이상심리 0 3 신동윤 목123 종강401 60 교양
AS196 프랑스어 0 3 유말희 금567 5204 50 교양
AS296 애니메이션의이해 0  3 최돈일 목567 종강206 40 교양
AS929 미분적분학2 0 3 김숙경 화123 종강605 50 교양
AS711 수리논리 0 3 김차영 금123 6405 40 교양 
AS567 인샬라!아랍어 0 3 사희만 월123 종강123 30 교양
AS777 무대화술 0 3 이용웅 목123 5477 35 교양
AS311 IT현재와미래 0 3 윤철진 금567 8509 60 교양
AS136 미디어미학 0 3 구재연 목567 종강605 30 교양
AS309 컴퓨터언어 0 3 김차영 화123 종강206 35 교양
AS444 취업자소서 0 3 오나윤 금123 종강313 40 교양