시작단 : 3
끝단 : 5
 3 x  2 =  6
 3 x  3 =  9
 3 x  4 = 12
 3 x  5 = 15
 3 x  6 = 18
 3 x  7 = 21
 3 x  8 = 24
 3 x  9 = 27

 4 x  2 =  8
 4 x  3 = 12
 4 x  4 = 16
 4 x  5 = 20
 4 x  6 = 24
 4 x  7 = 28
 4 x  8 = 32
 4 x  9 = 36

 5 x  2 = 10
 5 x  3 = 15
 5 x  4 = 20
 5 x  5 = 25
 5 x  6 = 30
 5 x  7 = 35
 5 x  8 = 40
 5 x  9 = 45