시작단 : 3
끝단 : 8
한줄예 : 4
별 : 4
 3 x  2 =  6	 * x  2 =  8	 5 x  2 = 10	 6 x  2 = 12	
 3 x  3 =  9	 * x  3 = 12	 5 x  3 = 15	 6 x  3 = 18	
 3 x  * = 12	 * x  * = 16	 5 x  * = 20	 6 x  * =  *	
 3 x  5 = 15	 * x  5 = 20	 5 x  5 = 25	 6 x  5 = 30	
 3 x  6 = 18	 * x  6 =  *	 5 x  6 = 30	 6 x  6 = 36	
 3 x  7 = 21	 * x  7 = 28	 5 x  7 = 35	 6 x  7 =  *	
 3 x  8 =  *	 * x  8 = 32	 5 x  8 =  *	 6 x  8 =  *	
 3 x  9 = 27	 * x  9 = 36	 5 x  9 =  *	 6 x  9 =  *	

 7 x  2 =  *	 8 x  2 = 16	
 7 x  3 = 21	 8 x  3 =  *	
 7 x  * = 28	 8 x  * = 32	
 7 x  5 = 35	 8 x  5 =  *	
 7 x  6 =  *	 8 x  6 =  *	
 7 x  7 =  *	 8 x  7 = 56	
 7 x  8 = 56	 8 x  8 =  *	
 7 x  9 = 63	 8 x  9 = 72

시작단 : 	