0:0:0:0:0:0:0:1 - - [15/Jun/2017:14:34:34 +0900] "GET /activiti-explorer HTTP/1.1" 302 -
0:0:0:0:0:0:0:1 - - [15/Jun/2017:14:34:34 +0900] "GET /activiti-explorer/ HTTP/1.1" 200 4464
0:0:0:0:0:0:0:1 - - [15/Jun/2017:14:34:34 +0900] "GET /activiti-explorer/VAADIN/widgetsets/org.activiti.explorer.CustomWidgetset/org.activiti.explorer.CustomWidgetset.nocache.js?1497504874376 HTTP/1.1" 200 6230
0:0:0:0:0:0:0:1 - - [15/Jun/2017:14:34:34 +0900] "GET /activiti-explorer/VAADIN/themes/activiti/styles.css HTTP/1.1" 200 21362
0:0:0:0:0:0:0:1 - - [15/Jun/2017:14:34:34 +0900] "GET /activiti-explorer/VAADIN/widgetsets/org.activiti.explorer.CustomWidgetset/dcharts/styles.css HTTP/1.1" 200 747
0:0:0:0:0:0:0:1 - - [15/Jun/2017:14:34:34 +0900] "GET /activiti-explorer/VAADIN/themes/reindeer/styles.css HTTP/1.1" 200 153538
0:0:0:0:0:0:0:1 - - [15/Jun/2017:14:34:34 +0900] "GET /activiti-explorer/VAADIN/themes/base/common/img/loading-indicator.gif HTTP/1.1" 200 1590
0:0:0:0:0:0:0:1 - - [15/Jun/2017:14:34:34 +0900] "GET /activiti-explorer/VAADIN/widgetsets/org.activiti.explorer.CustomWidgetset/51F0F75F652C07C3D4A94041764E0BDF.cache.html HTTP/1.1" 200 1146844
0:0:0:0:0:0:0:1 - - [15/Jun/2017:14:34:35 +0900] "GET /activiti-explorer/VAADIN/themes/activiti/favicon.ico HTTP/1.1" 200 3262
0:0:0:0:0:0:0:1 - - [15/Jun/2017:14:34:35 +0900] "POST /activiti-explorer/ui/UIDL?repaintAll=1&sh=864&sw=1536&cw=1526&ch=714&vw=1526&vh=714&fr=&tzo=-540&rtzo=-540&dstd=0&dston=false&curdate=1497504875060&wsver=6.8.8 HTTP/1.1" 200 1769
0:0:0:0:0:0:0:1 - - [15/Jun/2017:14:34:35 +0900] "GET /activiti-explorer/ui/APP/2/login HTTP/1.1" 200 1636
0:0:0:0:0:0:0:1 - - [15/Jun/2017:14:34:35 +0900] "GET /activiti-explorer/VAADIN/themes/activiti/img/explorer-logo.png HTTP/1.1" 200 12028
0:0:0:0:0:0:0:1 - - [15/Jun/2017:14:34:40 +0900] "POST /activiti-explorer/ui/1/loginHandler HTTP/1.1" 200 130
0:0:0:0:0:0:0:1 - - [15/Jun/2017:14:34:40 +0900] "POST /activiti-explorer/ui/UIDL?windowName=1 HTTP/1.1" 200 7639
0:0:0:0:0:0:0:1 - - [15/Jun/2017:14:34:40 +0900] "GET /activiti-explorer/VAADIN/themes/activiti/img/bg-header.gif HTTP/1.1" 200 272
0:0:0:0:0:0:0:1 - - [15/Jun/2017:14:34:40 +0900] "GET /activiti-explorer/VAADIN/themes/activiti/img/bullet-1.gif HTTP/1.1" 200 101
0:0:0:0:0:0:0:1 - - [15/Jun/2017:14:34:40 +0900] "GET /activiti-explorer/VAADIN/themes/activiti/img/separator-1.gif HTTP/1.1" 200 275
0:0:0:0:0:0:0:1 - - [15/Jun/2017:14:34:40 +0900] "GET /activiti-explorer/VAADIN/themes/activiti/img/bg-nav-hover.gif HTTP/1.1" 200 1769
0:0:0:0:0:0:0:1 - - [15/Jun/2017:14:34:40 +0900] "GET /activiti-explorer/VAADIN/themes/activiti/img/logo.png HTTP/1.1" 200 1909
0:0:0:0:0:0:0:1 - - [15/Jun/2017:14:34:40 +0900] "GET /activiti-explorer/VAADIN/themes/activiti/img/bg-number-active.gif HTTP/1.1" 200 130
0:0:0:0:0:0:0:1 - - [15/Jun/2017:14:34:40 +0900] "GET /activiti-explorer/VAADIN/themes/activiti/img/bg-toolbar.gif HTTP/1.1" 200 158
0:0:0:0:0:0:0:1 - - [15/Jun/2017:14:34:40 +0900] "GET /activiti-explorer/VAADIN/themes/activiti/img/bg-number.gif HTTP/1.1" 200 241
0:0:0:0:0:0:0:1 - - [15/Jun/2017:14:34:40 +0900] "GET /activiti-explorer/VAADIN/themes/activiti/img/button-bg-left.gif HTTP/1.1" 200 327
0:0:0:0:0:0:0:1 - - [15/Jun/2017:14:34:40 +0900] "GET /activiti-explorer/VAADIN/themes/activiti/img/button-bg-right.gif HTTP/1.1" 200 925
0:0:0:0:0:0:0:1 - - [15/Jun/2017:14:34:40 +0900] "GET /activiti-explorer/VAADIN/themes/activiti/img/bg-input-c-1.gif HTTP/1.1" 200 67
0:0:0:0:0:0:0:1 - - [15/Jun/2017:14:34:40 +0900] "GET /activiti-explorer/VAADIN/themes/activiti/img/bg-input-l-1.gif HTTP/1.1" 200 960
0:0:0:0:0:0:0:1 - - [15/Jun/2017:14:34:40 +0900] "GET /activiti-explorer/VAADIN/themes/activiti/img/bg-input-r-1.gif HTTP/1.1" 200 396
0:0:0:0:0:0:0:1 - - [15/Jun/2017:14:34:40 +0900] "GET /activiti-explorer/VAADIN/themes/activiti/img/bg-sidebar.gif HTTP/1.1" 200 91
0:0:0:0:0:0:0:1 - - [15/Jun/2017:14:34:40 +0900] "GET /activiti-explorer/VAADIN/themes/reindeer/common/img/vertical-sprites.png HTTP/1.1" 200 22944
0:0:0:0:0:0:0:1 - - [15/Jun/2017:14:34:41 +0900] "GET /activiti-explorer/VAADIN/themes/activiti/img/bg-table.png HTTP/1.1" 200 2836
0:0:0:0:0:0:0:1 - - [15/Jun/2017:14:34:41 +0900] "POST /activiti-explorer/ui/UIDL?windowName=1 HTTP/1.1" 200 107
0:0:0:0:0:0:0:1 - - [15/Jun/2017:14:34:41 +0900] "GET /activiti-explorer/VAADIN/themes/activiti/img/mm-tasks.png HTTP/1.1" 200 790
0:0:0:0:0:0:0:1 - - [15/Jun/2017:14:34:41 +0900] "GET /activiti-explorer/VAADIN/themes/activiti/img/mm-process.png HTTP/1.1" 200 938
0:0:0:0:0:0:0:1 - - [15/Jun/2017:14:34:41 +0900] "GET /activiti-explorer/VAADIN/themes/activiti/img/mm-reports.png HTTP/1.1" 200 527
0:0:0:0:0:0:0:1 - - [15/Jun/2017:14:34:41 +0900] "GET /activiti-explorer/VAADIN/themes/activiti/img/task-16.png HTTP/1.1" 200 561
0:0:0:0:0:0:0:1 - - [15/Jun/2017:14:34:41 +0900] "GET /activiti-explorer/VAADIN/themes/activiti/img/mm-manage.png HTTP/1.1" 200 992
0:0:0:0:0:0:0:1 - - [15/Jun/2017:15:24:18 +0900] "POST /activiti-explorer/ui/UIDL?windowName=1 HTTP/1.1" 200 8774
0:0:0:0:0:0:0:1 - - [15/Jun/2017:15:24:18 +0900] "GET /activiti-explorer/VAADIN/themes/activiti/img/database-22.png HTTP/1.1" 200 3773
0:0:0:0:0:0:0:1 - - [15/Jun/2017:15:24:18 +0900] "GET /activiti-explorer/VAADIN/themes/activiti/img/database-history-22.png HTTP/1.1" 200 3853
0:0:0:0:0:0:0:1 - - [15/Jun/2017:15:24:18 +0900] "GET /activiti-explorer/VAADIN/themes/activiti/img/database-identity-22.png HTTP/1.1" 200 3962
0:0:0:0:0:0:0:1 - - [15/Jun/2017:15:24:18 +0900] "POST /activiti-explorer/ui/UIDL?windowName=1 HTTP/1.1" 200 2205
0:0:0:0:0:0:0:1 - - [15/Jun/2017:15:24:18 +0900] "GET /activiti-explorer/VAADIN/themes/activiti/img/database-runtime-22.png HTTP/1.1" 200 3948
0:0:0:0:0:0:0:1 - - [15/Jun/2017:15:24:18 +0900] "GET /activiti-explorer/VAADIN/themes/activiti/img/database-repository-22.png HTTP/1.1" 200 3653
0:0:0:0:0:0:0:1 - - [15/Jun/2017:15:24:19 +0900] "POST /activiti-explorer/ui/UIDL?windowName=1 HTTP/1.1" 200 6346
0:0:0:0:0:0:0:1 - - [15/Jun/2017:15:24:19 +0900] "GET /activiti-explorer/VAADIN/themes/activiti/img/bg-c.gif HTTP/1.1" 200 189
0:0:0:0:0:0:0:1 - - [15/Jun/2017:15:24:19 +0900] "GET /activiti-explorer/VAADIN/themes/activiti/img/version-16.png HTTP/1.1" 200 317
0:0:0:0:0:0:0:1 - - [15/Jun/2017:15:24:19 +0900] "GET /activiti-explorer/VAADIN/themes/reindeer/common/icons/error.png HTTP/1.1" 200 258
0:0:0:0:0:0:0:1 - - [15/Jun/2017:15:24:19 +0900] "GET /activiti-explorer/VAADIN/themes/activiti/img/button-bg-small-left.gif HTTP/1.1" 200 319
0:0:0:0:0:0:0:1 - - [15/Jun/2017:15:24:19 +0900] "GET /activiti-explorer/VAADIN/themes/activiti/img/button-bg-small-right.gif HTTP/1.1" 200 624
0:0:0:0:0:0:0:1 - - [15/Jun/2017:15:24:19 +0900] "GET /activiti-explorer/VAADIN/themes/activiti/img/report-22.png HTTP/1.1" 200 527
0:0:0:0:0:0:0:1 - - [15/Jun/2017:15:24:19 +0900] "GET /activiti-explorer/VAADIN/themes/activiti/img/report-50.png HTTP/1.1" 200 1647
0:0:0:0:0:0:0:1 - - [15/Jun/2017:15:24:21 +0900] "POST /activiti-explorer/ui/UIDL?windowName=1 HTTP/1.1" 200 6449
0:0:0:0:0:0:0:1 - - [15/Jun/2017:15:24:21 +0900] "GET /activiti-explorer/VAADIN/themes/activiti/img/create-time-16.png HTTP/1.1" 200 897
0:0:0:0:0:0:0:1 - - [15/Jun/2017:15:24:21 +0900] "GET /activiti-explorer/VAADIN/themes/activiti/img/process-22.png HTTP/1.1" 200 1488
0:0:0:0:0:0:0:1 - - [15/Jun/2017:15:24:21 +0900] "GET /activiti-explorer/VAADIN/themes/activiti/img/process-50.png HTTP/1.1" 200 4859
0:0:0:0:0:0:0:1 - - [15/Jun/2017:15:24:23 +0900] "POST /activiti-explorer/ui/UIDL?windowName=1 HTTP/1.1" 200 6069
0:0:0:0:0:0:0:1 - - [15/Jun/2017:15:24:25 +0900] "GET /activiti-explorer/VAADIN/themes/base/shadow/img/top-left.png HTTP/1.1" 200 208
0:0:0:0:0:0:0:1 - - [15/Jun/2017:15:24:25 +0900] "GET /activiti-explorer/VAADIN/themes/base/shadow/img/top.png HTTP/1.1" 200 135
0:0:0:0:0:0:0:1 - - [15/Jun/2017:15:24:25 +0900] "GET /activiti-explorer/VAADIN/themes/base/shadow/img/top-right.png HTTP/1.1" 200 220
0:0:0:0:0:0:0:1 - - [15/Jun/2017:15:24:25 +0900] "GET /activiti-explorer/VAADIN/themes/base/shadow/img/right.png HTTP/1.1" 200 130
0:0:0:0:0:0:0:1 - - [15/Jun/2017:15:24:25 +0900] "GET /activiti-explorer/VAADIN/themes/base/shadow/img/left.png HTTP/1.1" 200 129
0:0:0:0:0:0:0:1 - - [15/Jun/2017:15:24:25 +0900] "GET /activiti-explorer/VAADIN/themes/base/shadow/img/center.png HTTP/1.1" 200 109
0:0:0:0:0:0:0:1 - - [15/Jun/2017:15:24:25 +0900] "GET /activiti-explorer/VAADIN/themes/base/shadow/img/bottom.png HTTP/1.1" 200 132
0:0:0:0:0:0:0:1 - - [15/Jun/2017:15:24:25 +0900] "GET /activiti-explorer/VAADIN/themes/base/shadow/img/bottom-right.png HTTP/1.1" 200 224
0:0:0:0:0:0:0:1 - - [15/Jun/2017:15:24:25 +0900] "GET /activiti-explorer/VAADIN/themes/base/shadow/img/bottom-left.png HTTP/1.1" 200 221
0:0:0:0:0:0:0:1 - - [15/Jun/2017:16:30:26 +0900] "POST /activiti-explorer/ui/UIDL?windowName=1 HTTP/1.1" 200 6440
0:0:0:0:0:0:0:1 - - [15/Jun/2017:16:30:28 +0900] "POST /activiti-explorer/ui/UIDL?windowName=1 HTTP/1.1" 200 6237
0:0:0:0:0:0:0:1 - - [15/Jun/2017:16:30:29 +0900] "POST /activiti-explorer/ui/UIDL?windowName=1 HTTP/1.1" 200 6067
0:0:0:0:0:0:0:1 - - [15/Jun/2017:16:30:32 +0900] "POST /activiti-explorer/ui/UIDL?windowName=1 HTTP/1.1" 200 6440
0:0:0:0:0:0:0:1 - - [15/Jun/2017:16:30:35 +0900] "GET /activiti-explorer/VAADIN/themes/activiti/img/button-bg-left-down.gif HTTP/1.1" 200 223
0:0:0:0:0:0:0:1 - - [15/Jun/2017:16:30:35 +0900] "GET /activiti-explorer/VAADIN/themes/activiti/img/button-bg-right-down.gif HTTP/1.1" 200 813
0:0:0:0:0:0:0:1 - - [15/Jun/2017:16:30:35 +0900] "GET /activiti-explorer/VAADIN/themes/activiti/img/button-bg-left-active.gif HTTP/1.1" 200 221
0:0:0:0:0:0:0:1 - - [15/Jun/2017:16:30:35 +0900] "GET /activiti-explorer/VAADIN/themes/activiti/img/button-bg-right-active.gif HTTP/1.1" 200 813
0:0:0:0:0:0:0:1 - - [15/Jun/2017:16:30:35 +0900] "POST /activiti-explorer/ui/UIDL?windowName=1 HTTP/1.1" 200 3757
0:0:0:0:0:0:0:1 - - [15/Jun/2017:16:30:38 +0900] "POST /activiti-explorer/ui/UIDL?windowName=1 HTTP/1.1" 200 894
0:0:0:0:0:0:0:1 - - [15/Jun/2017:16:30:43 +0900] "POST /activiti-explorer/ui/UIDL?windowName=1 HTTP/1.1" 200 6236
0:0:0:0:0:0:0:1 - - [15/Jun/2017:16:30:46 +0900] "POST /activiti-explorer/ui/UIDL?windowName=1 HTTP/1.1" 200 8452
0:0:0:0:0:0:0:1 - - [15/Jun/2017:16:30:46 +0900] "POST /activiti-explorer/ui/UIDL?windowName=1 HTTP/1.1" 200 2207
0:0:0:0:0:0:0:1 - - [15/Jun/2017:16:30:48 +0900] "POST /activiti-explorer/ui/UIDL?windowName=1 HTTP/1.1" 200 6064
0:0:0:0:0:0:0:1 - - [15/Jun/2017:16:30:50 +0900] "POST /activiti-explorer/ui/UIDL?windowName=1 HTTP/1.1" 200 5846
0:0:0:0:0:0:0:1 - - [15/Jun/2017:16:30:50 +0900] "POST /activiti-explorer/ui/UIDL?windowName=1 HTTP/1.1" 200 5846
0:0:0:0:0:0:0:1 - - [15/Jun/2017:16:30:53 +0900] "POST /activiti-explorer/ui/UIDL?windowName=1 HTTP/1.1" 200 5846
0:0:0:0:0:0:0:1 - - [15/Jun/2017:16:32:11 +0900] "POST /activiti-explorer/ui/UIDL?windowName=1 HTTP/1.1" 200 6840
0:0:0:0:0:0:0:1 - - [15/Jun/2017:16:32:20 +0900] "POST /activiti-explorer/ui/UIDL?windowName=1 HTTP/1.1" 200 5417
0:0:0:0:0:0:0:1 - - [15/Jun/2017:16:32:20 +0900] "GET /activiti-explorer/ui/APP/3/myfilename-20170615163220461.png HTTP/1.1" 200 42243
0:0:0:0:0:0:0:1 - - [15/Jun/2017:16:32:22 +0900] "POST /activiti-explorer/ui/UIDL?windowName=1 HTTP/1.1" 200 3495
0:0:0:0:0:0:0:1 - - [15/Jun/2017:16:32:22 +0900] "GET /activiti-explorer/VAADIN/themes/base/window/img/shadow/top-left.png HTTP/1.1" 200 374
0:0:0:0:0:0:0:1 - - [15/Jun/2017:16:32:22 +0900] "GET /activiti-explorer/VAADIN/themes/base/window/img/shadow/top-right.png HTTP/1.1" 200 473
0:0:0:0:0:0:0:1 - - [15/Jun/2017:16:32:22 +0900] "GET /activiti-explorer/VAADIN/themes/base/window/img/shadow/top.png HTTP/1.1" 200 143
0:0:0:0:0:0:0:1 - - [15/Jun/2017:16:32:22 +0900] "GET /activiti-explorer/VAADIN/themes/base/window/img/shadow/left.png HTTP/1.1" 200 141
0:0:0:0:0:0:0:1 - - [15/Jun/2017:16:32:22 +0900] "GET /activiti-explorer/VAADIN/themes/base/window/img/shadow/center.png HTTP/1.1" 200 109
0:0:0:0:0:0:0:1 - - [15/Jun/2017:16:32:22 +0900] "GET /activiti-explorer/VAADIN/themes/base/window/img/shadow/right.png HTTP/1.1" 200 143
0:0:0:0:0:0:0:1 - - [15/Jun/2017:16:32:22 +0900] "GET /activiti-explorer/VAADIN/themes/base/window/img/shadow/bottom-left.png HTTP/1.1" 200 455
0:0:0:0:0:0:0:1 - - [15/Jun/2017:16:32:22 +0900] "GET /activiti-explorer/VAADIN/themes/base/window/img/shadow/bottom.png HTTP/1.1" 200 168
0:0:0:0:0:0:0:1 - - [15/Jun/2017:16:32:22 +0900] "GET /activiti-explorer/VAADIN/themes/base/window/img/shadow/bottom-right.png HTTP/1.1" 200 437
0:0:0:0:0:0:0:1 - - [15/Jun/2017:16:32:22 +0900] "GET /activiti-explorer/VAADIN/themes/activiti/img/button-bpmn-48.png HTTP/1.1" 200 3118
0:0:0:0:0:0:0:1 - - [15/Jun/2017:16:32:22 +0900] "GET /activiti-explorer/VAADIN/themes/activiti/img/button-table-48.png HTTP/1.1" 200 2386
0:0:0:0:0:0:0:1 - - [15/Jun/2017:16:32:56 +0900] "POST /activiti-explorer/ui/UIDL?windowName=1 HTTP/1.1" 200 5828
0:0:0:0:0:0:0:1 - - [15/Jun/2017:16:32:56 +0900] "POST /activiti-explorer/ui/UIDL?windowName=1&onunloadburst=1 HTTP/1.1" 200 24
0:0:0:0:0:0:0:1 - - [15/Jun/2017:16:32:56 +0900] "GET /activiti-explorer/modeler.html?modelId=1620 HTTP/1.1" 200 8046
0:0:0:0:0:0:0:1 - - [15/Jun/2017:16:32:56 +0900] "GET /activiti-explorer/editor-app/libs/ng-grid-2.0.7.min.css HTTP/1.1" 200 7639
0:0:0:0:0:0:0:1 - - [15/Jun/2017:16:32:56 +0900] "GET /activiti-explorer/editor-app/libs/bootstrap_3.1.1/css/bootstrap.min.css HTTP/1.1" 200 99961
0:0:0:0:0:0:0:1 - - [15/Jun/2017:16:32:56 +0900] "GET /activiti-explorer/editor-app/editor/css/editor.css HTTP/1.1" 200 3005
0:0:0:0:0:0:0:1 - - [15/Jun/2017:16:32:56 +0900] "GET /activiti-explorer/editor-app/css/style.css HTTP/1.1" 200 8299
0:0:0:0:0:0:0:1 - - [15/Jun/2017:16:32:56 +0900] "GET /activiti-explorer/editor-app/css/style-common.css HTTP/1.1" 200 25756
0:0:0:0:0:0:0:1 - - [15/Jun/2017:16:32:56 +0900] "GET /activiti-explorer/editor-app/libs/jquery_1.11.0/jquery.min.js HTTP/1.1" 200 96380
0:0:0:0:0:0:0:1 - - [15/Jun/2017:16:32:56 +0900] "GET /activiti-explorer/editor-app/libs/jquery-ui-1.10.3.custom.min.js HTTP/1.1" 200 82848
0:0:0:0:0:0:0:1 - - [15/Jun/2017:16:32:56 +0900] "GET /activiti-explorer/editor-app/css/style-editor.css HTTP/1.1" 200 9847
0:0:0:0:0:0:0:1 - - [15/Jun/2017:16:32:56 +0900] "GET /activiti-explorer/editor-app/libs/angular_1.2.13/angular.min.js HTTP/1.1" 200 101116
0:0:0:0:0:0:0:1 - - [15/Jun/2017:16:32:56 +0900] "GET /activiti-explorer/editor-app/libs/angular_1.2.13/angular-animate.min.js HTTP/1.1" 200 10554
0:0:0:0:0:0:0:1 - - [15/Jun/2017:16:32:56 +0900] "GET /activiti-explorer/editor-app/libs/bootstrap_3.1.1/js/bootstrap.min.js HTTP/1.1" 200 29110
0:0:0:0:0:0:0:1 - - [15/Jun/2017:16:32:56 +0900] "GET /activiti-explorer/editor-app/libs/angular-resource_1.2.13/angular-resource.min.js HTTP/1.1" 200 3297
0:0:0:0:0:0:0:1 - - [15/Jun/2017:16:32:56 +0900] "GET /activiti-explorer/editor-app/libs/angular-cookies_1.2.13/angular-cookies.min.js HTTP/1.1" 200 849
0:0:0:0:0:0:0:1 - - [15/Jun/2017:16:32:56 +0900] "GET /activiti-explorer/editor-app/libs/angular-sanitize_1.2.13/angular-sanitize.min.js HTTP/1.1" 200 4295
0:0:0:0:0:0:0:1 - - [15/Jun/2017:16:32:56 +0900] "GET /activiti-explorer/editor-app/libs/angular-route_1.2.13/angular-route.min.js HTTP/1.1" 200 3885
0:0:0:0:0:0:0:1 - - [15/Jun/2017:16:32:56 +0900] "GET /activiti-explorer/editor-app/libs/angular-translate_2.4.2/angular-translate.min.js HTTP/1.1" 200 13152
0:0:0:0:0:0:0:1 - - [15/Jun/2017:16:32:56 +0900] "GET /activiti-explorer/editor-app/libs/angular-translate-storage-cookie/angular-translate-storage-cookie.js HTTP/1.1" 200 529
0:0:0:0:0:0:0:1 - - [15/Jun/2017:16:32:56 +0900] "GET /activiti-explorer/editor-app/libs/angular-strap_2.0.5/angular-strap.min.js HTTP/1.1" 200 59000
0:0:0:0:0:0:0:1 - - [15/Jun/2017:16:32:56 +0900] "GET /activiti-explorer/editor-app/libs/angular-translate-loader-static-files/angular-translate-loader-static-files.js HTTP/1.1" 200 919
0:0:0:0:0:0:0:1 - - [15/Jun/2017:16:32:56 +0900] "GET /activiti-explorer/editor-app/libs/angular-strap_2.0.5/angular-strap.tpl.min.js HTTP/1.1" 200 7983
0:0:0:0:0:0:0:1 - - [15/Jun/2017:16:32:56 +0900] "GET /activiti-explorer/editor-app/libs/momentjs_2.5.1/momentjs.min.js HTTP/1.1" 200 26049
0:0:0:0:0:0:0:1 - - [15/Jun/2017:16:32:56 +0900] "GET /activiti-explorer/editor-app/libs/ui-utils.min-0.0.4.js HTTP/1.1" 200 13788
0:0:0:0:0:0:0:1 - - [15/Jun/2017:16:32:56 +0900] "GET /activiti-explorer/editor-app/libs/ng-grid-2.0.7-min.js HTTP/1.1" 200 64028
0:0:0:0:0:0:0:1 - - [15/Jun/2017:16:32:56 +0900] "GET /activiti-explorer/editor-app/libs/prototype-1.5.1.js HTTP/1.1" 200 96130
0:0:0:0:0:0:0:1 - - [15/Jun/2017:16:32:56 +0900] "GET /activiti-explorer/editor-app/libs/path_parser.js HTTP/1.1" 200 3753
0:0:0:0:0:0:0:1 - - [15/Jun/2017:16:32:56 +0900] "GET /activiti-explorer/editor-app/libs/angular-dragdrop.min-1.0.3.js HTTP/1.1" 200 4726
0:0:0:0:0:0:0:1 - - [15/Jun/2017:16:32:56 +0900] "GET /activiti-explorer/editor-app/libs/jquery.autogrow-textarea.js HTTP/1.1" 200 2537
0:0:0:0:0:0:0:1 - - [15/Jun/2017:16:32:56 +0900] "GET /activiti-explorer/editor-app/libs/mousetrap-1.4.5.min.js HTTP/1.1" 200 3839
0:0:0:0:0:0:0:1 - - [15/Jun/2017:16:32:56 +0900] "GET /activiti-explorer/editor-app/libs/angular-scroll_0.5.7/angular-scroll.min.js HTTP/1.1" 200 6983
0:0:0:0:0:0:0:1 - - [15/Jun/2017:16:32:56 +0900] "GET /activiti-explorer/editor-app/app-cfg.js?v=1 HTTP/1.1" 200 994
0:0:0:0:0:0:0:1 - - [15/Jun/2017:16:32:56 +0900] "GET /activiti-explorer/editor-app/editor-config.js HTTP/1.1" 200 1112
0:0:0:0:0:0:0:1 - - [15/Jun/2017:16:32:56 +0900] "GET /activiti-explorer/editor-app/editor/oryx.debug.js HTTP/1.1" 200 754895
0:0:0:0:0:0:0:1 - - [15/Jun/2017:16:32:56 +0900] "GET /activiti-explorer/editor-app/configuration/url-config.js HTTP/1.1" 200 1286
0:0:0:0:0:0:0:1 - - [15/Jun/2017:16:32:56 +0900] "GET /activiti-explorer/editor-app/editor/i18n/translation_signavio_en_us.js HTTP/1.1" 200 6580
0:0:0:0:0:0:0:1 - - [15/Jun/2017:16:32:56 +0900] "GET /activiti-explorer/editor-app/editor/i18n/translation_en_us.js HTTP/1.1" 200 22609
0:0:0:0:0:0:0:1 - - [15/Jun/2017:16:32:56 +0900] "GET /activiti-explorer/editor-app/app.js HTTP/1.1" 200 18536
0:0:0:0:0:0:0:1 - - [15/Jun/2017:16:32:56 +0900] "GET /activiti-explorer/editor-app/eventbus.js HTTP/1.1" 200 4922
0:0:0:0:0:0:0:1 - - [15/Jun/2017:16:32:56 +0900] "GET /activiti-explorer/editor-app/editor-controller.js HTTP/1.1" 200 2370
0:0:0:0:0:0:0:1 - - [15/Jun/2017:16:32:56 +0900] "GET /activiti-explorer/editor-app/stencil-controller.js HTTP/1.1" 200 63427
0:0:0:0:0:0:0:1 - - [15/Jun/2017:16:32:56 +0900] "GET /activiti-explorer/editor-app/toolbar-controller.js HTTP/1.1" 200 6886
0:0:0:0:0:0:0:1 - - [15/Jun/2017:16:32:56 +0900] "GET /activiti-explorer/editor-app/header-controller.js HTTP/1.1" 200 1256
0:0:0:0:0:0:0:1 - - [15/Jun/2017:16:32:56 +0900] "GET /activiti-explorer/editor-app/editor-utils.js HTTP/1.1" 200 5272
0:0:0:0:0:0:0:1 - - [15/Jun/2017:16:32:56 +0900] "GET /activiti-explorer/editor-app/select-shape-controller.js HTTP/1.1" 200 10891
0:0:0:0:0:0:0:1 - - [15/Jun/2017:16:32:56 +0900] "GET /activiti-explorer/editor-app/configuration/properties-default-controllers.js HTTP/1.1" 200 3913
0:0:0:0:0:0:0:1 - - [15/Jun/2017:16:32:56 +0900] "GET /activiti-explorer/editor-app/configuration/toolbar-default-actions.js HTTP/1.1" 200 15487
0:0:0:0:0:0:0:1 - - [15/Jun/2017:16:32:56 +0900] "GET /activiti-explorer/editor-app/configuration/properties-execution-listeners-controller.js HTTP/1.1" 200 13135
0:0:0:0:0:0:0:1 - - [15/Jun/2017:16:32:56 +0900] "GET /activiti-explorer/editor-app/configuration/properties-event-listeners-controller.js HTTP/1.1" 200 9868
0:0:0:0:0:0:0:1 - - [15/Jun/2017:16:32:56 +0900] "GET /activiti-explorer/editor-app/configuration/properties-assignment-controller.js HTTP/1.1" 200 4701
0:0:0:0:0:0:0:1 - - [15/Jun/2017:16:32:56 +0900] "GET /activiti-explorer/editor-app/configuration/properties-fields-controller.js HTTP/1.1" 200 6737
0:0:0:0:0:0:0:1 - - [15/Jun/2017:16:32:56 +0900] "GET /activiti-explorer/editor-app/configuration/properties-in-parameters-controller.js HTTP/1.1" 200 6040
0:0:0:0:0:0:0:1 - - [15/Jun/2017:16:32:56 +0900] "GET /activiti-explorer/editor-app/configuration/properties-form-properties-controller.js HTTP/1.1" 200 10878
0:0:0:0:0:0:0:1 - - [15/Jun/2017:16:32:56 +0900] "GET /activiti-explorer/editor-app/configuration/properties-multiinstance-controller.js HTTP/1.1" 200 1215
0:0:0:0:0:0:0:1 - - [15/Jun/2017:16:32:56 +0900] "GET /activiti-explorer/editor-app/configuration/properties-out-parameters-controller.js HTTP/1.1" 200 6057
0:0:0:0:0:0:0:1 - - [15/Jun/2017:16:32:56 +0900] "GET /activiti-explorer/editor-app/configuration/properties-task-listeners-controller.js HTTP/1.1" 200 12840
0:0:0:0:0:0:0:1 - - [15/Jun/2017:16:32:56 +0900] "GET /activiti-explorer/editor-app/configuration/properties-condition-expression-controller.js HTTP/1.1" 200 1938
0:0:0:0:0:0:0:1 - - [15/Jun/2017:16:32:56 +0900] "GET /activiti-explorer/editor-app/configuration/properties-sequenceflow-order-controller.js HTTP/1.1" 200 5157
0:0:0:0:0:0:0:1 - - [15/Jun/2017:16:32:56 +0900] "GET /activiti-explorer/editor-app/configuration/properties-signal-scope-controller.js HTTP/1.1" 200 1954
0:0:0:0:0:0:0:1 - - [15/Jun/2017:16:32:56 +0900] "GET /activiti-explorer/editor-app/configuration/properties-signal-definitions-controller.js HTTP/1.1" 200 5483
0:0:0:0:0:0:0:1 - - [15/Jun/2017:16:32:56 +0900] "GET /activiti-explorer/editor-app/configuration/properties-message-definitions-controller.js HTTP/1.1" 200 5301
0:0:0:0:0:0:0:1 - - [15/Jun/2017:16:32:56 +0900] "GET /activiti-explorer/editor-app/configuration/properties-message-scope-controller.js HTTP/1.1" 200 1970
0:0:0:0:0:0:0:1 - - [15/Jun/2017:16:32:56 +0900] "GET /activiti-explorer/editor-app/configuration/toolbar-custom-actions.js HTTP/1.1" 200 877
0:0:0:0:0:0:0:1 - - [15/Jun/2017:16:32:56 +0900] "GET /activiti-explorer/editor-app/configuration/toolbar.js HTTP/1.1" 200 6073
0:0:0:0:0:0:0:1 - - [15/Jun/2017:16:32:56 +0900] "GET /activiti-explorer/editor-app/configuration/properties.js HTTP/1.1" 200 5760
0:0:0:0:0:0:0:1 - - [15/Jun/2017:16:32:56 +0900] "GET /activiti-explorer/editor-app/configuration/properties-custom-controllers.js HTTP/1.1" 200 877
0:0:0:0:0:0:0:1 - - [15/Jun/2017:16:32:56 +0900] "GET /activiti-explorer/editor-app/images/logo.png HTTP/1.1" 200 4427
0:0:0:0:0:0:0:1 - - [15/Jun/2017:16:32:56 +0900] "GET /activiti-explorer/editor-app/i18n/en.json HTTP/1.1" 200 17670
0:0:0:0:0:0:0:1 - - [15/Jun/2017:16:32:56 +0900] "GET /activiti-explorer/editor-app/editor.html HTTP/1.1" 200 7976
0:0:0:0:0:0:0:1 - - [15/Jun/2017:16:32:56 +0900] "GET /activiti-explorer/editor-app/libs/bootstrap_3.1.1/fonts/glyphicons-halflings-regular.woff HTTP/1.1" 200 23320
0:0:0:0:0:0:0:1 - - [15/Jun/2017:16:32:56 +0900] "GET /activiti-explorer/editor-app/plugins.xml HTTP/1.1" 200 2499
0:0:0:0:0:0:0:1 - - [15/Jun/2017:16:32:56 +0900] "GET /activiti-explorer/editor-app/images/delete.png HTTP/1.1" 200 304
0:0:0:0:0:0:0:1 - - [15/Jun/2017:16:32:56 +0900] "GET /activiti-explorer/editor-app/images/wrench.png HTTP/1.1" 200 374
0:0:0:0:0:0:0:1 - - [15/Jun/2017:16:32:56 +0900] "GET /activiti-explorer/editor-app/fonts/activiti-admin-webfont.woff HTTP/1.1" 200 5624
0:0:0:0:0:0:0:1 - - [15/Jun/2017:16:32:57 +0900] "GET /activiti-explorer/service/model/1620/json HTTP/1.1" 200 197
0:0:0:0:0:0:0:1 - - [15/Jun/2017:16:32:57 +0900] "GET /activiti-explorer/service/editor/stencilset?version=1497511977141 HTTP/1.1" 200 134366
0:0:0:0:0:0:0:1 - - [15/Jun/2017:16:32:57 +0900] "GET /activiti-explorer/service/editor/stencilset?version=1497511977182 HTTP/1.1" 200 134366
0:0:0:0:0:0:0:1 - - [15/Jun/2017:16:32:57 +0900] "GET /activiti-explorer/editor-app/partials/stencil-item-template.html?version=4 HTTP/1.1" 200 1012
0:0:0:0:0:0:0:1 - - [15/Jun/2017:16:32:57 +0900] "GET /activiti-explorer/editor-app/stencilsets/bpmn2.0/icons/gateway/exclusive.databased.png HTTP/1.1" 200 462
0:0:0:0:0:0:0:1 - - [15/Jun/2017:16:32:57 +0900] "GET /activiti-explorer/editor-app/stencilsets/bpmn2.0/icons/catching/timer.png HTTP/1.1" 200 573
0:0:0:0:0:0:0:1 - - [15/Jun/2017:16:32:57 +0900] "GET /activiti-explorer/editor-app/stencilsets/bpmn2.0/icons/activity/list/type.user.png HTTP/1.1" 200 405
0:0:0:0:0:0:0:1 - - [15/Jun/2017:16:32:57 +0900] "GET /activiti-explorer/editor-app/stencilsets/bpmn2.0/icons/endevent/none.png HTTP/1.1" 200 467
0:0:0:0:0:0:0:1 - - [15/Jun/2017:16:32:57 +0900] "GET /activiti-explorer/editor-app/stencilsets/bpmn2.0/icons/throwing/none.png HTTP/1.1" 200 582
0:0:0:0:0:0:0:1 - - [15/Jun/2017:16:32:57 +0900] "GET /activiti-explorer/editor-app/stencilsets/bpmn2.0/icons/artifact/text.annotation.png HTTP/1.1" 200 367
0:0:0:0:0:0:0:1 - - [15/Jun/2017:16:32:57 +0900] "GET /activiti-explorer/editor-app/stencilsets/bpmn2.0/icons/connector/association.undirected.png HTTP/1.1" 200 413
0:0:0:0:0:0:0:1 - - [15/Jun/2017:16:32:57 +0900] "GET /activiti-explorer/editor-app/stencilsets/bpmn2.0/icons/connector/sequenceflow.png HTTP/1.1" 200 346
0:0:0:0:0:0:0:1 - - [15/Jun/2017:16:32:57 +0900] "GET /activiti-explorer/editor-app/stencilsets/bpmn2.0/icons/startevent/timer.png HTTP/1.1" 200 573
0:0:0:0:0:0:0:1 - - [15/Jun/2017:16:32:57 +0900] "GET /activiti-explorer/editor-app/stencilsets/bpmn2.0/icons/startevent/none.png HTTP/1.1" 200 450
0:0:0:0:0:0:0:1 - - [15/Jun/2017:16:32:57 +0900] "GET /activiti-explorer/editor-app/stencilsets/bpmn2.0/icons/startevent/signal.png HTTP/1.1" 200 3201
0:0:0:0:0:0:0:1 - - [15/Jun/2017:16:32:57 +0900] "GET /activiti-explorer/editor-app/stencilsets/bpmn2.0/icons/startevent/message.png HTTP/1.1" 200 549
0:0:0:0:0:0:0:1 - - [15/Jun/2017:16:32:57 +0900] "GET /activiti-explorer/editor-app/stencilsets/bpmn2.0/icons/startevent/error.png HTTP/1.1" 200 698
0:0:0:0:0:0:0:1 - - [15/Jun/2017:16:32:57 +0900] "GET /activiti-explorer/editor-app/stencilsets/bpmn2.0/icons/activity/list/type.service.png HTTP/1.1" 200 530
0:0:0:0:0:0:0:1 - - [15/Jun/2017:16:32:57 +0900] "GET /activiti-explorer/editor-app/stencilsets/bpmn2.0/icons/activity/list/type.script.png HTTP/1.1" 200 300
0:0:0:0:0:0:0:1 - - [15/Jun/2017:16:32:57 +0900] "GET /activiti-explorer/editor-app/stencilsets/bpmn2.0/icons/activity/list/type.business.rule.png HTTP/1.1" 200 209
0:0:0:0:0:0:0:1 - - [15/Jun/2017:16:32:57 +0900] "GET /activiti-explorer/editor-app/stencilsets/bpmn2.0/icons/activity/list/type.manual.png HTTP/1.1" 200 405
0:0:0:0:0:0:0:1 - - [15/Jun/2017:16:32:57 +0900] "GET /activiti-explorer/editor-app/stencilsets/bpmn2.0/icons/activity/list/type.receive.png HTTP/1.1" 200 297
0:0:0:0:0:0:0:1 - - [15/Jun/2017:16:32:57 +0900] "GET /activiti-explorer/editor-app/stencilsets/bpmn2.0/icons/catching/signal.png HTTP/1.1" 200 627
0:0:0:0:0:0:0:1 - - [15/Jun/2017:16:32:57 +0900] "GET /activiti-explorer/editor-app/stencilsets/bpmn2.0/icons/activity/list/type.send.png HTTP/1.1" 200 440
0:0:0:0:0:0:0:1 - - [15/Jun/2017:16:32:57 +0900] "GET /activiti-explorer/editor-app/stencilsets/bpmn2.0/icons/catching/message.png HTTP/1.1" 200 549
0:0:0:0:0:0:0:1 - - [15/Jun/2017:16:32:57 +0900] "GET /activiti-explorer/editor-app/stencilsets/bpmn2.0/icons/swimlane/lane.png HTTP/1.1" 200 187
0:0:0:0:0:0:0:1 - - [15/Jun/2017:16:32:57 +0900] "GET /activiti-explorer/editor-app/stencilsets/bpmn2.0/icons/activity/list/type.mule.png HTTP/1.1" 200 705
0:0:0:0:0:0:0:1 - - [15/Jun/2017:16:32:57 +0900] "GET /activiti-explorer/editor-app/stencilsets/bpmn2.0/icons/gateway/inclusive.png HTTP/1.1" 200 432
0:0:0:0:0:0:0:1 - - [15/Jun/2017:16:32:57 +0900] "GET /activiti-explorer/editor-app/stencilsets/bpmn2.0/icons/activity/expanded.subprocess.png HTTP/1.1" 200 273
0:0:0:0:0:0:0:1 - - [15/Jun/2017:16:32:57 +0900] "GET /activiti-explorer/editor-app/stencilsets/bpmn2.0/icons/catching/error.png HTTP/1.1" 200 698
0:0:0:0:0:0:0:1 - - [15/Jun/2017:16:32:57 +0900] "GET /activiti-explorer/editor-app/stencilsets/bpmn2.0/icons/swimlane/pool.png HTTP/1.1" 200 189
0:0:0:0:0:0:0:1 - - [15/Jun/2017:16:32:57 +0900] "GET /activiti-explorer/editor-app/stencilsets/bpmn2.0/icons/gateway/eventbased.png HTTP/1.1" 200 492
0:0:0:0:0:0:0:1 - - [15/Jun/2017:16:32:57 +0900] "GET /activiti-explorer/editor-app/stencilsets/bpmn2.0/icons/activity/task.png HTTP/1.1" 200 255
0:0:0:0:0:0:0:1 - - [15/Jun/2017:16:32:57 +0900] "GET /activiti-explorer/editor-app/stencilsets/bpmn2.0/icons/activity/event.subprocess.png HTTP/1.1" 200 274
0:0:0:0:0:0:0:1 - - [15/Jun/2017:16:32:57 +0900] "GET /activiti-explorer/editor-app/stencilsets/bpmn2.0/icons/gateway/parallel.png HTTP/1.1" 200 329
0:0:0:0:0:0:0:1 - - [15/Jun/2017:16:32:57 +0900] "GET /activiti-explorer/editor-app/stencilsets/bpmn2.0/icons/endevent/terminate.png HTTP/1.1" 200 3166
0:0:0:0:0:0:0:1 - - [15/Jun/2017:16:32:57 +0900] "GET /activiti-explorer/editor-app/stencilsets/bpmn2.0/icons/activity/list/type.camel.png HTTP/1.1" 200 608
0:0:0:0:0:0:0:1 - - [15/Jun/2017:16:32:57 +0900] "GET /activiti-explorer/editor-app/stencilsets/bpmn2.0/icons/catching/compensation.png HTTP/1.1" 200 3256
0:0:0:0:0:0:0:1 - - [15/Jun/2017:16:32:57 +0900] "GET /activiti-explorer/editor-app/stencilsets/bpmn2.0/icons/endevent/cancel.png HTTP/1.1" 200 3280
0:0:0:0:0:0:0:1 - - [15/Jun/2017:16:32:57 +0900] "GET /activiti-explorer/editor-app/stencilsets/bpmn2.0/icons/throwing/signal.png HTTP/1.1" 200 747
0:0:0:0:0:0:0:1 - - [15/Jun/2017:16:32:57 +0900] "GET /activiti-explorer/editor-app/stencilsets/bpmn2.0/icons/catching/cancel.png HTTP/1.1" 200 3241
0:0:0:0:0:0:0:1 - - [15/Jun/2017:16:32:57 +0900] "GET /activiti-explorer/editor-app/stencilsets/bpmn2.0/icons/endevent/error.png HTTP/1.1" 200 757
0:0:0:0:0:0:0:1 - - [15/Jun/2017:16:32:57 +0900] "GET /activiti-explorer/editor-app/images/se-handle-dark.gif HTTP/1.1" 200 838
0:0:0:0:0:0:0:1 - - [15/Jun/2017:16:32:57 +0900] "GET /activiti-explorer/editor-app/images/nw-handle-dark.gif HTTP/1.1" 200 839
0:0:0:0:0:0:0:1 - - [15/Jun/2017:16:32:57 +0900] "GET /activiti-explorer/editor-app/images/loading.gif HTTP/1.1" 200 17550
0:0:0:0:0:0:0:1 - - [15/Jun/2017:16:32:57 +0900] "GET /activiti-explorer/editor-app/configuration/properties/default-value-display-template.html?version=1497511976856 HTTP/1.1" 200 231
0:0:0:0:0:0:0:1 - - [15/Jun/2017:16:32:57 +0900] "GET /activiti-explorer/editor-app/configuration/properties/execution-listeners-display-template.html?version=1497511976856 HTTP/1.1" 200 209
0:0:0:0:0:0:0:1 - - [15/Jun/2017:16:32:57 +0900] "GET /activiti-explorer/editor-app/configuration/properties/event-listeners-display-template.html?version=1497511976856 HTTP/1.1" 200 197
0:0:0:0:0:0:0:1 - - [15/Jun/2017:16:32:57 +0900] "GET /activiti-explorer/editor-app/configuration/properties/signal-definitions-display-template.html?version=1497511976856 HTTP/1.1" 200 188
0:0:0:0:0:0:0:1 - - [15/Jun/2017:16:32:57 +0900] "GET /activiti-explorer/editor-app/configuration/properties/message-definitions-display-template.html?version=1497511976856 HTTP/1.1" 200 189
0:0:0:0:0:0:0:1 - - [15/Jun/2017:16:55:21 +0900] "GET /activiti-explorer/ HTTP/1.1" 200 4464
0:0:0:0:0:0:0:1 - - [15/Jun/2017:16:55:21 +0900] "GET /activiti-explorer/VAADIN/widgetsets/org.activiti.explorer.CustomWidgetset/org.activiti.explorer.CustomWidgetset.nocache.js?1497513321085 HTTP/1.1" 200 6230
0:0:0:0:0:0:0:1 - - [15/Jun/2017:16:55:21 +0900] "GET /activiti-explorer/VAADIN/widgetsets/org.activiti.explorer.CustomWidgetset/51F0F75F652C07C3D4A94041764E0BDF.cache.html HTTP/1.1" 304 -
0:0:0:0:0:0:0:1 - - [15/Jun/2017:16:55:21 +0900] "GET /activiti-explorer/VAADIN/widgetsets/org.activiti.explorer.CustomWidgetset/dcharts/styles.css HTTP/1.1" 304 -
0:0:0:0:0:0:0:1 - - [15/Jun/2017:16:55:21 +0900] "GET /activiti-explorer/VAADIN/themes/activiti/styles.css HTTP/1.1" 304 -
0:0:0:0:0:0:0:1 - - [15/Jun/2017:16:55:21 +0900] "GET /activiti-explorer/VAADIN/themes/reindeer/styles.css HTTP/1.1" 304 -
0:0:0:0:0:0:0:1 - - [15/Jun/2017:16:55:21 +0900] "GET /activiti-explorer/VAADIN/themes/base/common/img/loading-indicator.gif HTTP/1.1" 304 -
0:0:0:0:0:0:0:1 - - [15/Jun/2017:16:55:21 +0900] "POST /activiti-explorer/ui/UIDL?repaintAll=1&sh=864&sw=1536&cw=1536&ch=734&vw=1536&vh=734&fr=&tzo=-540&rtzo=-540&dstd=0&dston=false&curdate=1497513321908&wsver=6.8.8 HTTP/1.1" 200 8149
0:0:0:0:0:0:0:1 - - [15/Jun/2017:16:55:21 +0900] "GET /activiti-explorer/VAADIN/themes/activiti/img/bg-header.gif HTTP/1.1" 304 -
0:0:0:0:0:0:0:1 - - [15/Jun/2017:16:55:21 +0900] "GET /activiti-explorer/VAADIN/themes/activiti/img/bullet-1.gif HTTP/1.1" 304 -
0:0:0:0:0:0:0:1 - - [15/Jun/2017:16:55:21 +0900] "GET /activiti-explorer/VAADIN/themes/activiti/img/separator-1.gif HTTP/1.1" 304 -
0:0:0:0:0:0:0:1 - - [15/Jun/2017:16:55:21 +0900] "GET /activiti-explorer/VAADIN/themes/activiti/img/bg-nav-hover.gif HTTP/1.1" 304 -
0:0:0:0:0:0:0:1 - - [15/Jun/2017:16:55:21 +0900] "GET /activiti-explorer/VAADIN/themes/activiti/img/logo.png HTTP/1.1" 304 -
0:0:0:0:0:0:0:1 - - [15/Jun/2017:16:55:21 +0900] "GET /activiti-explorer/VAADIN/themes/activiti/img/bg-toolbar.gif HTTP/1.1" 304 -
0:0:0:0:0:0:0:1 - - [15/Jun/2017:16:55:21 +0900] "GET /activiti-explorer/VAADIN/themes/activiti/img/button-bg-left.gif HTTP/1.1" 304 -
0:0:0:0:0:0:0:1 - - [15/Jun/2017:16:55:21 +0900] "GET /activiti-explorer/VAADIN/themes/reindeer/common/img/vertical-sprites.png HTTP/1.1" 304 -
0:0:0:0:0:0:0:1 - - [15/Jun/2017:16:55:21 +0900] "GET /activiti-explorer/VAADIN/themes/activiti/img/button-bg-right.gif HTTP/1.1" 304 -
0:0:0:0:0:0:0:1 - - [15/Jun/2017:16:55:21 +0900] "GET /activiti-explorer/VAADIN/themes/activiti/img/bg-c.gif HTTP/1.1" 304 -
0:0:0:0:0:0:0:1 - - [15/Jun/2017:16:55:22 +0900] "GET /activiti-explorer/VAADIN/themes/activiti/img/process-50.png HTTP/1.1" 304 -
0:0:0:0:0:0:0:1 - - [15/Jun/2017:16:55:22 +0900] "GET /activiti-explorer/VAADIN/themes/activiti/img/version-16.png HTTP/1.1" 304 -
0:0:0:0:0:0:0:1 - - [15/Jun/2017:16:55:22 +0900] "GET /activiti-explorer/VAADIN/themes/activiti/img/bg-table.png HTTP/1.1" 304 -
0:0:0:0:0:0:0:1 - - [15/Jun/2017:16:55:22 +0900] "GET /activiti-explorer/VAADIN/themes/activiti/img/process-22.png HTTP/1.1" 304 -
0:0:0:0:0:0:0:1 - - [15/Jun/2017:16:55:22 +0900] "GET /activiti-explorer/VAADIN/themes/activiti/img/mm-tasks.png HTTP/1.1" 304 -
0:0:0:0:0:0:0:1 - - [15/Jun/2017:16:55:22 +0900] "GET /activiti-explorer/VAADIN/themes/activiti/img/mm-process.png HTTP/1.1" 304 -
0:0:0:0:0:0:0:1 - - [15/Jun/2017:16:55:22 +0900] "GET /activiti-explorer/VAADIN/themes/activiti/img/mm-reports.png HTTP/1.1" 304 -
0:0:0:0:0:0:0:1 - - [15/Jun/2017:16:55:22 +0900] "GET /activiti-explorer/VAADIN/themes/activiti/img/mm-manage.png HTTP/1.1" 304 -
0:0:0:0:0:0:0:1 - - [15/Jun/2017:16:55:22 +0900] "POST /activiti-explorer/ui/UIDL?windowName=1 HTTP/1.1" 200 5313
0:0:0:0:0:0:0:1 - - [15/Jun/2017:16:55:26 +0900] "POST /activiti-explorer/ui/UIDL?windowName=1 HTTP/1.1" 200 615
0:0:0:0:0:0:0:1 - - [15/Jun/2017:16:55:26 +0900] "POST /activiti-explorer/ui/UIDL?windowName=1&onunloadburst=1 HTTP/1.1" 200 24
0:0:0:0:0:0:0:1 - - [15/Jun/2017:16:55:26 +0900] "GET /activiti-explorer/service/model/1620/json HTTP/1.1" 200 197
0:0:0:0:0:0:0:1 - - [15/Jun/2017:16:55:26 +0900] "GET /activiti-explorer/service/editor/stencilset?version=1497513326919 HTTP/1.1" 200 134366
0:0:0:0:0:0:0:1 - - [15/Jun/2017:16:55:26 +0900] "GET /activiti-explorer/service/editor/stencilset?version=1497513326958 HTTP/1.1" 200 134366
0:0:0:0:0:0:0:1 - - [15/Jun/2017:16:55:27 +0900] "GET /activiti-explorer/editor-app/configuration/properties/default-value-display-template.html?version=1497513326822 HTTP/1.1" 200 231
0:0:0:0:0:0:0:1 - - [15/Jun/2017:16:55:27 +0900] "GET /activiti-explorer/editor-app/configuration/properties/execution-listeners-display-template.html?version=1497513326822 HTTP/1.1" 200 209
0:0:0:0:0:0:0:1 - - [15/Jun/2017:16:55:27 +0900] "GET /activiti-explorer/editor-app/configuration/properties/event-listeners-display-template.html?version=1497513326822 HTTP/1.1" 200 197
0:0:0:0:0:0:0:1 - - [15/Jun/2017:16:55:27 +0900] "GET /activiti-explorer/editor-app/configuration/properties/message-definitions-display-template.html?version=1497513326822 HTTP/1.1" 200 189
0:0:0:0:0:0:0:1 - - [15/Jun/2017:16:55:27 +0900] "GET /activiti-explorer/editor-app/configuration/properties/signal-definitions-display-template.html?version=1497513326822 HTTP/1.1" 200 188
0:0:0:0:0:0:0:1 - - [15/Jun/2017:16:55:29 +0900] "POST /activiti-explorer/ui/UIDL?repaintAll=1&sh=864&sw=1536&cw=1536&ch=734&vw=1536&vh=734&fr=processmodel/1620&tzo=-540&rtzo=-540&dstd=0&dston=false&curdate=1497513329842&wsver=6.8.8 HTTP/1.1" 200 8150
0:0:0:0:0:0:0:1 - - [15/Jun/2017:16:55:35 +0900] "POST /activiti-explorer/ui/UIDL?windowName=1 HTTP/1.1" 200 3557
0:0:0:0:0:0:0:1 - - [15/Jun/2017:16:55:37 +0900] "POST /activiti-explorer/ui/UIDL?windowName=1 HTTP/1.1" 200 528
0:0:0:0:0:0:0:1 - - [15/Jun/2017:16:55:38 +0900] "POST /activiti-explorer/ui/UIDL?windowName=1 HTTP/1.1" 200 1383
0:0:0:0:0:0:0:1 - - [15/Jun/2017:16:55:39 +0900] "POST /activiti-explorer/ui/UIDL?windowName=1 HTTP/1.1" 200 529
0:0:0:0:0:0:0:1 - - [15/Jun/2017:16:55:41 +0900] "POST /activiti-explorer/ui/UIDL?windowName=1 HTTP/1.1" 200 6290
0:0:0:0:0:0:0:1 - - [15/Jun/2017:16:55:41 +0900] "GET /activiti-explorer/VAADIN/themes/activiti/img/create-time-16.png HTTP/1.1" 304 -
0:0:0:0:0:0:0:1 - - [15/Jun/2017:16:55:46 +0900] "POST /activiti-explorer/ui/UIDL?windowName=1 HTTP/1.1" 200 2604
0:0:0:0:0:0:0:1 - - [15/Jun/2017:16:55:47 +0900] "POST /activiti-explorer/ui/UIDL?windowName=1 HTTP/1.1" 200 5367
0:0:0:0:0:0:0:1 - - [15/Jun/2017:16:55:49 +0900] "POST /activiti-explorer/ui/UIDL?windowName=1 HTTP/1.1" 200 3521
0:0:0:0:0:0:0:1 - - [15/Jun/2017:16:55:49 +0900] "GET /activiti-explorer/ui/APP/4/myfilename-20170615165549007.png HTTP/1.1" 200 42243
0:0:0:0:0:0:0:1 - - [15/Jun/2017:16:55:49 +0900] "POST /activiti-explorer/ui/UIDL?windowName=1 HTTP/1.1" 200 3318
0:0:0:0:0:0:0:1 - - [15/Jun/2017:16:55:57 +0900] "POST /activiti-explorer/ui/UIDL?windowName=1 HTTP/1.1" 200 614
0:0:0:0:0:0:0:1 - - [15/Jun/2017:16:55:57 +0900] "POST /activiti-explorer/ui/UIDL?windowName=1&onunloadburst=1 HTTP/1.1" 200 24
0:0:0:0:0:0:0:1 - - [15/Jun/2017:16:55:57 +0900] "GET /activiti-explorer/service/model/1620/json HTTP/1.1" 200 197
0:0:0:0:0:0:0:1 - - [15/Jun/2017:16:55:57 +0900] "GET /activiti-explorer/service/editor/stencilset?version=1497513357579 HTTP/1.1" 200 134366
0:0:0:0:0:0:0:1 - - [15/Jun/2017:16:55:57 +0900] "GET /activiti-explorer/service/editor/stencilset?version=1497513357613 HTTP/1.1" 200 134366
0:0:0:0:0:0:0:1 - - [15/Jun/2017:16:55:57 +0900] "GET /activiti-explorer/editor-app/configuration/properties/default-value-display-template.html?version=1497513357443 HTTP/1.1" 200 231
0:0:0:0:0:0:0:1 - - [15/Jun/2017:16:55:57 +0900] "GET /activiti-explorer/editor-app/configuration/properties/execution-listeners-display-template.html?version=1497513357443 HTTP/1.1" 200 209
0:0:0:0:0:0:0:1 - - [15/Jun/2017:16:55:57 +0900] "GET /activiti-explorer/editor-app/configuration/properties/event-listeners-display-template.html?version=1497513357443 HTTP/1.1" 200 197
0:0:0:0:0:0:0:1 - - [15/Jun/2017:16:55:57 +0900] "GET /activiti-explorer/editor-app/configuration/properties/signal-definitions-display-template.html?version=1497513357443 HTTP/1.1" 200 188
0:0:0:0:0:0:0:1 - - [15/Jun/2017:16:55:57 +0900] "GET /activiti-explorer/editor-app/configuration/properties/message-definitions-display-template.html?version=1497513357443 HTTP/1.1" 200 189
0:0:0:0:0:0:0:1 - - [15/Jun/2017:16:56:49 +0900] "POST /activiti-explorer/ui/UIDL?repaintAll=1&sh=864&sw=1536&cw=1536&ch=734&vw=1536&vh=734&fr=processmodel/1620&tzo=-540&rtzo=-540&dstd=0&dston=false&curdate=1497513409758&wsver=6.8.8 HTTP/1.1" 200 8224
0:0:0:0:0:0:0:1 - - [15/Jun/2017:16:56:52 +0900] "POST /activiti-explorer/ui/UIDL?windowName=1 HTTP/1.1" 200 6203
0:0:0:0:0:0:0:1 - - [15/Jun/2017:16:56:52 +0900] "GET /activiti-explorer/VAADIN/themes/activiti/img/bg-number-active.gif HTTP/1.1" 304 -
0:0:0:0:0:0:0:1 - - [15/Jun/2017:16:56:52 +0900] "GET /activiti-explorer/VAADIN/themes/activiti/img/bg-number.gif HTTP/1.1" 304 -
0:0:0:0:0:0:0:1 - - [15/Jun/2017:16:56:52 +0900] "GET /activiti-explorer/VAADIN/themes/activiti/img/bg-input-c-1.gif HTTP/1.1" 304 -
0:0:0:0:0:0:0:1 - - [15/Jun/2017:16:56:52 +0900] "GET /activiti-explorer/VAADIN/themes/activiti/img/bg-input-l-1.gif HTTP/1.1" 304 -
0:0:0:0:0:0:0:1 - - [15/Jun/2017:16:56:52 +0900] "GET /activiti-explorer/VAADIN/themes/activiti/img/bg-input-r-1.gif HTTP/1.1" 304 -
0:0:0:0:0:0:0:1 - - [15/Jun/2017:16:56:52 +0900] "GET /activiti-explorer/VAADIN/themes/activiti/img/bg-sidebar.gif HTTP/1.1" 304 -
0:0:0:0:0:0:0:1 - - [15/Jun/2017:16:56:52 +0900] "GET /activiti-explorer/VAADIN/themes/activiti/img/task-16.png HTTP/1.1" 304 -
0:0:0:0:0:0:0:1 - - [15/Jun/2017:16:56:54 +0900] "POST /activiti-explorer/ui/UIDL?windowName=1 HTTP/1.1" 200 6516
0:0:0:0:0:0:0:1 - - [15/Jun/2017:16:56:55 +0900] "POST /activiti-explorer/ui/UIDL?windowName=1 HTTP/1.1" 200 2609
0:0:0:0:0:0:0:1 - - [15/Jun/2017:16:56:57 +0900] "POST /activiti-explorer/ui/UIDL?windowName=1 HTTP/1.1" 200 6296
0:0:0:0:0:0:0:1 - - [15/Jun/2017:16:57:03 +0900] "POST /activiti-explorer/ui/UIDL?windowName=1 HTTP/1.1" 200 3041
0:0:0:0:0:0:0:1 - - [15/Jun/2017:16:57:05 +0900] "POST /activiti-explorer/ui/UIDL?windowName=1 HTTP/1.1" 200 5373
0:0:0:0:0:0:0:1 - - [15/Jun/2017:16:57:08 +0900] "POST /activiti-explorer/ui/UIDL?windowName=1 HTTP/1.1" 200 3528
0:0:0:0:0:0:0:1 - - [15/Jun/2017:16:57:12 +0900] "POST /activiti-explorer/ui/UIDL?windowName=1 HTTP/1.1" 200 107
0:0:0:0:0:0:0:1 - - [15/Jun/2017:16:57:13 +0900] "POST /activiti-explorer/ui/UIDL?windowName=1 HTTP/1.1" 200 529
0:0:0:0:0:0:0:1 - - [15/Jun/2017:16:57:15 +0900] "POST /activiti-explorer/ui/UIDL?windowName=1 HTTP/1.1" 200 615
0:0:0:0:0:0:0:1 - - [15/Jun/2017:16:57:15 +0900] "POST /activiti-explorer/ui/UIDL?windowName=1&onunloadburst=1 HTTP/1.1" 200 24
0:0:0:0:0:0:0:1 - - [15/Jun/2017:16:57:16 +0900] "GET /activiti-explorer/service/model/1620/json HTTP/1.1" 200 197
0:0:0:0:0:0:0:1 - - [15/Jun/2017:16:57:16 +0900] "GET /activiti-explorer/service/editor/stencilset?version=1497513436070 HTTP/1.1" 200 134366
0:0:0:0:0:0:0:1 - - [15/Jun/2017:16:57:16 +0900] "GET /activiti-explorer/service/editor/stencilset?version=1497513436101 HTTP/1.1" 200 134366
0:0:0:0:0:0:0:1 - - [15/Jun/2017:16:57:16 +0900] "GET /activiti-explorer/editor-app/configuration/properties/default-value-display-template.html?version=1497513435913 HTTP/1.1" 200 231
0:0:0:0:0:0:0:1 - - [15/Jun/2017:16:57:16 +0900] "GET /activiti-explorer/editor-app/configuration/properties/execution-listeners-display-template.html?version=1497513435913 HTTP/1.1" 200 209
0:0:0:0:0:0:0:1 - - [15/Jun/2017:16:57:16 +0900] "GET /activiti-explorer/editor-app/configuration/properties/event-listeners-display-template.html?version=1497513435913 HTTP/1.1" 200 197
0:0:0:0:0:0:0:1 - - [15/Jun/2017:16:57:16 +0900] "GET /activiti-explorer/editor-app/configuration/properties/signal-definitions-display-template.html?version=1497513435913 HTTP/1.1" 200 188
0:0:0:0:0:0:0:1 - - [15/Jun/2017:16:57:16 +0900] "GET /activiti-explorer/editor-app/configuration/properties/message-definitions-display-template.html?version=1497513435913 HTTP/1.1" 200 189
0:0:0:0:0:0:0:1 - - [15/Jun/2017:16:57:17 +0900] "POST /activiti-explorer/ui/UIDL?repaintAll=1&sh=864&sw=1536&cw=1536&ch=734&vw=1536&vh=734&fr=processmodel/1620&tzo=-540&rtzo=-540&dstd=0&dston=false&curdate=1497513437433&wsver=6.8.8 HTTP/1.1" 200 8224
0:0:0:0:0:0:0:1 - - [15/Jun/2017:16:57:18 +0900] "POST /activiti-explorer/ui/UIDL?windowName=1 HTTP/1.1" 200 562
0:0:0:0:0:0:0:1 - - [15/Jun/2017:16:57:18 +0900] "GET /activiti-explorer/VAADIN/themes/base/shadow/img/left.png HTTP/1.1" 304 -
0:0:0:0:0:0:0:1 - - [15/Jun/2017:16:57:18 +0900] "GET /activiti-explorer/VAADIN/themes/base/shadow/img/center.png HTTP/1.1" 304 -
0:0:0:0:0:0:0:1 - - [15/Jun/2017:16:57:18 +0900] "GET /activiti-explorer/VAADIN/themes/base/shadow/img/top.png HTTP/1.1" 304 -
0:0:0:0:0:0:0:1 - - [15/Jun/2017:16:57:18 +0900] "GET /activiti-explorer/VAADIN/themes/base/shadow/img/top-left.png HTTP/1.1" 304 -
0:0:0:0:0:0:0:1 - - [15/Jun/2017:16:57:18 +0900] "GET /activiti-explorer/VAADIN/themes/base/shadow/img/top-right.png HTTP/1.1" 304 -
0:0:0:0:0:0:0:1 - - [15/Jun/2017:16:57:18 +0900] "GET /activiti-explorer/VAADIN/themes/base/shadow/img/right.png HTTP/1.1" 304 -
0:0:0:0:0:0:0:1 - - [15/Jun/2017:16:57:18 +0900] "GET /activiti-explorer/VAADIN/themes/base/shadow/img/bottom.png HTTP/1.1" 304 -
0:0:0:0:0:0:0:1 - - [15/Jun/2017:16:57:18 +0900] "GET /activiti-explorer/VAADIN/themes/base/shadow/img/bottom-left.png HTTP/1.1" 304 -
0:0:0:0:0:0:0:1 - - [15/Jun/2017:16:57:18 +0900] "GET /activiti-explorer/VAADIN/themes/base/shadow/img/bottom-right.png HTTP/1.1" 304 -
0:0:0:0:0:0:0:1 - - [15/Jun/2017:16:57:31 +0900] "POST /activiti-explorer/ui/UIDL?windowName=1 HTTP/1.1" 200 6203
0:0:0:0:0:0:0:1 - - [15/Jun/2017:16:57:32 +0900] "POST /activiti-explorer/ui/UIDL?windowName=1 HTTP/1.1" 200 6516
0:0:0:0:0:0:0:1 - - [15/Jun/2017:17:19:32 +0900] "POST /activiti-explorer/ui/UIDL?windowName=1 HTTP/1.1" 200 87
0:0:0:0:0:0:0:1 - - [15/Jun/2017:17:19:32 +0900] "POST /activiti-explorer/ui/UIDL?windowName=1&onunloadburst=1 HTTP/1.1" 200 -
0:0:0:0:0:0:0:1 - - [15/Jun/2017:17:19:32 +0900] "GET /activiti-explorer/ui/ HTTP/1.1" 200 4464
0:0:0:0:0:0:0:1 - - [15/Jun/2017:17:19:32 +0900] "GET /activiti-explorer/VAADIN/widgetsets/org.activiti.explorer.CustomWidgetset/org.activiti.explorer.CustomWidgetset.nocache.js?1497514772196 HTTP/1.1" 200 6230
0:0:0:0:0:0:0:1 - - [15/Jun/2017:17:19:32 +0900] "POST /activiti-explorer/ui/UIDL?repaintAll=1&sh=864&sw=1536&cw=1536&ch=734&vw=1536&vh=734&fr=&tzo=-540&rtzo=-540&dstd=0&dston=false&curdate=1497514772698&wsver=6.8.8 HTTP/1.1" 200 1767
0:0:0:0:0:0:0:1 - - [15/Jun/2017:17:19:32 +0900] "GET /activiti-explorer/ui/APP/2/login HTTP/1.1" 200 1636
0:0:0:0:0:0:0:1 - - [15/Jun/2017:17:19:32 +0900] "GET /activiti-explorer/VAADIN/themes/activiti/img/explorer-logo.png HTTP/1.1" 304 -
0:0:0:0:0:0:0:1 - - [15/Jun/2017:17:38:23 +0900] "POST /activiti-explorer/ui/1/loginHandler HTTP/1.1" 200 130
0:0:0:0:0:0:0:1 - - [15/Jun/2017:17:38:23 +0900] "POST /activiti-explorer/ui/UIDL?windowName=1 HTTP/1.1" 200 1319
0:0:0:0:0:0:0:1 - - [15/Jun/2017:17:38:23 +0900] "GET /activiti-explorer/VAADIN/themes/activiti/img/warning.png HTTP/1.1" 200 701
0:0:0:0:0:0:0:1 - - [15/Jun/2017:17:38:23 +0900] "GET /activiti-explorer/ui/APP/3/login HTTP/1.1" 200 1636
0:0:0:0:0:0:0:1 - - [15/Jun/2017:17:38:26 +0900] "POST /activiti-explorer/ui/1/loginHandler HTTP/1.1" 200 130
0:0:0:0:0:0:0:1 - - [15/Jun/2017:17:38:26 +0900] "POST /activiti-explorer/ui/UIDL?windowName=1 HTTP/1.1" 200 1319
0:0:0:0:0:0:0:1 - - [15/Jun/2017:17:38:26 +0900] "GET /activiti-explorer/ui/APP/4/login HTTP/1.1" 200 1636
0:0:0:0:0:0:0:1 - - [15/Jun/2017:17:38:31 +0900] "POST /activiti-explorer/ui/1/loginHandler HTTP/1.1" 200 130
0:0:0:0:0:0:0:1 - - [15/Jun/2017:17:38:31 +0900] "POST /activiti-explorer/ui/UIDL?windowName=1 HTTP/1.1" 200 7644
0:0:0:0:0:0:0:1 - - [15/Jun/2017:17:38:31 +0900] "POST /activiti-explorer/ui/UIDL?windowName=1 HTTP/1.1" 200 105
0:0:0:0:0:0:0:1 - - [15/Jun/2017:17:38:40 +0900] "POST /activiti-explorer/ui/UIDL?windowName=1&onunloadburst=1 HTTP/1.1" 200 24
0:0:0:0:0:0:0:1 - - [15/Jun/2017:17:38:52 +0900] "GET /activiti-explorer/ HTTP/1.1" 200 4464
0:0:0:0:0:0:0:1 - - [15/Jun/2017:17:38:53 +0900] "GET /activiti-explorer/VAADIN/widgetsets/org.activiti.explorer.CustomWidgetset/org.activiti.explorer.CustomWidgetset.nocache.js?1497515932990 HTTP/1.1" 200 6230
0:0:0:0:0:0:0:1 - - [15/Jun/2017:17:38:53 +0900] "POST /activiti-explorer/ui/UIDL?repaintAll=1&sh=864&sw=1536&cw=1536&ch=734&vw=1536&vh=734&fr=&tzo=-540&rtzo=-540&dstd=0&dston=false&curdate=1497515933498&wsver=6.8.8 HTTP/1.1" 200 8185
0:0:0:0:0:0:0:1 - - [15/Jun/2017:17:38:58 +0900] "POST /activiti-explorer/ui/UIDL?windowName=1 HTTP/1.1" 200 6493
0:0:0:0:0:0:0:1 - - [15/Jun/2017:17:38:59 +0900] "POST /activiti-explorer/ui/UIDL?windowName=1 HTTP/1.1" 200 5359
0:0:0:0:0:0:0:1 - - [15/Jun/2017:17:39:02 +0900] "POST /activiti-explorer/ui/UIDL?windowName=1 HTTP/1.1" 200 6228
