
T-01 3 후드티_ST1 5000 f s/m/l
T-02 3 후드티_ST2 10000 c s/m/l/xl
T-03 4 면티_ST1__ 5000 f s/m/l/xl
T-04 4 면티_ST2__ 10000 f xs/s/m/l
T-05 4 면티_ST3__ 8800 c s/m/l
B-01 7 치마_주름_롱 10000 f s/m/l
B-02 7 치마_주름_숏 8000 f s/m/l
B-03 6 반바지_청_숏 12000 f s/m/l
B-04 5 바지_면_일자 10000 m s/m/l
B-05 2 츄리닝____ 8000 c s/m/l
T-06 4 줄무늬티___ 7000 c s/m/l/xl