﻿DD746 창의기초설계	1	김현아 월123
DD104 컴퓨터프로그래밍	1	권준희 화678
DD015 객체지향프로그래밍	1	정경용 수123
DD747 수치계산	2	김희열 화123
DD748 시스템소프트웨어	2	김광훈 금123
DD734 이산수학1	2	권기현 목678
CS343 자료구조론	2	김인철 월678
DD721 알고리즘	4	배상원 화123
DD749 윈도우프로그래밍	2	정경용 금678
DD736 수리논리	2	김차영 목678
DD750 자바프로그래밍	2	이병대 화123
EF624 컴퓨터구조	2	안진호 목123
DD751 내장형시스템	4	이병대 수678
DD727 데이터베이스	3	권준희 수123
DD316 소프트웨어공학	3	권기현 목123
DD724 운영체제	3	이병대 금678
AS705 컴퓨터네트워크	2	김남기 수678
DD726 네트워크프로그래밍	3	김남기 목678
DD753 웹서비스설계	3	김희열 금123
DD771 프로그래밍언어론	3	이은정	화123
DD313 인공지능	3	김인철 월123
DD318 컴파일러	4	이은정 화678
DD709 컴퓨터그래픽스	3	전준철 목123